QPD/data/11-03-25/Raw/DS0004.CSV

Format,1.0B,
Memory Length,10000,
IntpDistance,0,
Trigger Address,4999,
Trigger Level,3.980E-01,
Source,CH1,
Vertical Units,V,
Vertical Units Div,0,
Vertical Units Extend Div,16,
Label, ,
Probe Type,0,
Probe Ratio,1.000E+00,
Vertical Scale,1.000E-01,
Vertical Position,-4.160E-01,
Horizontal Units,S,
Horizontal Scale,1.000E-01,
Horizontal Position,0.000E+00,
Horizontal Mode,Roll Mode,
Display Last Dot Address,10000,
Waveform Last Dot Address,0,
SincET Mode,Real Time,
Sampling Period,1.000E-04,
Horizontal Old Scale,1.000E-01,
Horizontal Old Position,0.000E+00,
Firmware,V1.32,
Mode,Detail,
Waveform Data,
-5.000000e-01,3.96e-01,
-4.999000e-01,3.92e-01,
-4.998000e-01,3.92e-01,
-4.997000e-01,3.96e-01,
-4.996000e-01,4.00e-01,
-4.995000e-01,4.00e-01,
-4.994000e-01,4.00e-01,
-4.993000e-01,4.32e-01,
-4.992000e-01,4.36e-01,
-4.991000e-01,4.36e-01,
-4.990000e-01,4.40e-01,
-4.989000e-01,4.40e-01,
-4.988000e-01,4.40e-01,
-4.987000e-01,4.36e-01,
-4.986000e-01,4.40e-01,
-4.985000e-01,4.40e-01,
-4.984000e-01,4.40e-01,
-4.983000e-01,4.40e-01,
-4.982000e-01,4.40e-01,
-4.981000e-01,4.40e-01,
-4.980000e-01,4.40e-01,
-4.979000e-01,4.40e-01,
-4.978000e-01,4.40e-01,
-4.977000e-01,4.40e-01,
-4.976000e-01,4.40e-01,
-4.975000e-01,4.40e-01,
-4.974000e-01,4.40e-01,
-4.973000e-01,4.40e-01,
-4.972000e-01,4.36e-01,
-4.971000e-01,4.40e-01,
-4.970000e-01,4.40e-01,
-4.969000e-01,4.36e-01,
-4.968000e-01,4.08e-01,
-4.967000e-01,4.40e-01,
-4.966000e-01,4.36e-01,
-4.965000e-01,4.44e-01,
-4.964000e-01,4.44e-01,
-4.963000e-01,4.52e-01,
-4.962000e-01,4.52e-01,
-4.961000e-01,4.52e-01,
-4.960000e-01,4.52e-01,
-4.959000e-01,4.52e-01,
-4.958000e-01,4.52e-01,
-4.957000e-01,4.52e-01,
-4.956000e-01,4.52e-01,
-4.955000e-01,4.52e-01,
-4.954000e-01,4.52e-01,
-4.953000e-01,4.52e-01,
-4.952000e-01,4.52e-01,
-4.951000e-01,4.52e-01,
-4.950000e-01,4.52e-01,
-4.949000e-01,4.52e-01,
-4.948000e-01,4.52e-01,
-4.947000e-01,4.52e-01,
-4.946000e-01,4.52e-01,
-4.945000e-01,4.52e-01,
-4.944000e-01,4.52e-01,
-4.943000e-01,4.52e-01,
-4.942000e-01,4.52e-01,
-4.941000e-01,4.52e-01,
-4.940000e-01,4.52e-01,
-4.939000e-01,4.52e-01,
-4.938000e-01,4.52e-01,
-4.937000e-01,4.52e-01,
-4.936000e-01,4.52e-01,
-4.935000e-01,4.52e-01,
-4.934000e-01,4.52e-01,
-4.933000e-01,4.52e-01,
-4.932000e-01,4.52e-01,
-4.931000e-01,4.44e-01,
-4.930000e-01,4.44e-01,
-4.929000e-01,4.44e-01,
-4.928000e-01,4.44e-01,
-4.927000e-01,4.20e-01,
-4.926000e-01,4.32e-01,
-4.925000e-01,4.08e-01,
-4.924000e-01,4.36e-01,
-4.923000e-01,4.12e-01,
-4.922000e-01,4.32e-01,
-4.921000e-01,4.32e-01,
-4.920000e-01,4.08e-01,
-4.919000e-01,4.24e-01,
-4.918000e-01,4.12e-01,
-4.917000e-01,4.00e-01,
-4.916000e-01,4.00e-01,
-4.915000e-01,4.08e-01,
-4.914000e-01,4.08e-01,
-4.913000e-01,4.08e-01,
-4.912000e-01,3.96e-01,
-4.911000e-01,4.20e-01,
-4.910000e-01,4.20e-01,
-4.909000e-01,4.00e-01,
-4.908000e-01,4.08e-01,
-4.907000e-01,4.12e-01,
-4.906000e-01,4.00e-01,
-4.905000e-01,3.96e-01,
-4.904000e-01,4.00e-01,
-4.903000e-01,4.12e-01,
-4.902000e-01,4.08e-01,
-4.901000e-01,4.00e-01,
-4.900000e-01,3.92e-01,
-4.899000e-01,4.20e-01,
-4.898000e-01,4.24e-01,
-4.897000e-01,4.08e-01,
-4.896000e-01,4.36e-01,
-4.895000e-01,4.32e-01,
-4.894000e-01,4.32e-01,
-4.893000e-01,4.32e-01,
-4.892000e-01,4.24e-01,
-4.891000e-01,4.32e-01,
-4.890000e-01,4.24e-01,
-4.889000e-01,4.24e-01,
-4.888000e-01,4.20e-01,
-4.887000e-01,4.20e-01,
-4.886000e-01,4.24e-01,
-4.885000e-01,4.12e-01,
-4.884000e-01,4.20e-01,
-4.883000e-01,4.16e-01,
-4.882000e-01,4.08e-01,
-4.881000e-01,3.96e-01,
-4.880000e-01,3.96e-01,
-4.879000e-01,4.00e-01,
-4.878000e-01,4.12e-01,
-4.877000e-01,3.92e-01,
-4.876000e-01,4.08e-01,
-4.875000e-01,3.96e-01,
-4.874000e-01,4.08e-01,
-4.873000e-01,4.12e-01,
-4.872000e-01,4.12e-01,
-4.871000e-01,4.00e-01,
-4.870000e-01,3.96e-01,
-4.869000e-01,4.00e-01,
-4.868000e-01,4.00e-01,
-4.867000e-01,4.08e-01,
-4.866000e-01,4.00e-01,
-4.865000e-01,3.96e-01,
-4.864000e-01,3.96e-01,
-4.863000e-01,3.96e-01,
-4.862000e-01,4.08e-01,
-4.861000e-01,3.96e-01,
-4.860000e-01,4.00e-01,
-4.859000e-01,3.92e-01,
-4.858000e-01,3.92e-01,
-4.857000e-01,3.92e-01,
-4.856000e-01,4.00e-01,
-4.855000e-01,4.12e-01,
-4.854000e-01,4.00e-01,
-4.853000e-01,3.92e-01,
-4.852000e-01,3.96e-01,
-4.851000e-01,3.92e-01,
-4.850000e-01,3.96e-01,
-4.849000e-01,3.96e-01,
-4.848000e-01,3.96e-01,
-4.847000e-01,3.88e-01,
-4.846000e-01,3.96e-01,
-4.845000e-01,3.92e-01,
-4.844000e-01,3.96e-01,
-4.843000e-01,3.92e-01,
-4.842000e-01,3.92e-01,
-4.841000e-01,3.92e-01,
-4.840000e-01,3.96e-01,
-4.839000e-01,3.96e-01,
-4.838000e-01,3.96e-01,
-4.837000e-01,3.92e-01,
-4.836000e-01,3.96e-01,
-4.835000e-01,3.96e-01,
-4.834000e-01,4.08e-01,
-4.833000e-01,4.24e-01,
-4.832000e-01,4.32e-01,
-4.831000e-01,4.36e-01,
-4.830000e-01,4.40e-01,
-4.829000e-01,4.40e-01,
-4.828000e-01,4.40e-01,
-4.827000e-01,4.36e-01,
-4.826000e-01,4.44e-01,
-4.825000e-01,4.44e-01,
-4.824000e-01,4.44e-01,
-4.823000e-01,4.44e-01,
-4.822000e-01,4.44e-01,
-4.821000e-01,4.52e-01,
-4.820000e-01,4.44e-01,
-4.819000e-01,4.52e-01,
-4.818000e-01,4.44e-01,
-4.817000e-01,4.52e-01,
-4.816000e-01,4.52e-01,
-4.815000e-01,4.52e-01,
-4.814000e-01,4.52e-01,
-4.813000e-01,4.52e-01,
-4.812000e-01,4.44e-01,
-4.811000e-01,4.52e-01,
-4.810000e-01,4.52e-01,
-4.809000e-01,4.52e-01,
-4.808000e-01,4.52e-01,
-4.807000e-01,4.44e-01,
-4.806000e-01,4.52e-01,
-4.805000e-01,4.52e-01,
-4.804000e-01,4.52e-01,
-4.803000e-01,4.44e-01,
-4.802000e-01,4.52e-01,
-4.801000e-01,4.52e-01,
-4.800000e-01,4.44e-01,
-4.799000e-01,4.52e-01,
-4.798000e-01,4.52e-01,
-4.797000e-01,4.52e-01,
-4.796000e-01,4.52e-01,
-4.795000e-01,4.52e-01,
-4.794000e-01,4.52e-01,
-4.793000e-01,4.52e-01,
-4.792000e-01,4.44e-01,
-4.791000e-01,4.52e-01,
-4.790000e-01,4.44e-01,
-4.789000e-01,4.44e-01,
-4.788000e-01,4.44e-01,
-4.787000e-01,4.44e-01,
-4.786000e-01,4.40e-01,
-4.785000e-01,4.44e-01,
-4.784000e-01,4.12e-01,
-4.783000e-01,4.36e-01,
-4.782000e-01,4.20e-01,
-4.781000e-01,4.40e-01,
-4.780000e-01,4.40e-01,
-4.779000e-01,4.44e-01,
-4.778000e-01,4.44e-01,
-4.777000e-01,4.44e-01,
-4.776000e-01,4.44e-01,
-4.775000e-01,4.44e-01,
-4.774000e-01,4.44e-01,
-4.773000e-01,4.44e-01,
-4.772000e-01,4.44e-01,
-4.771000e-01,4.44e-01,
-4.770000e-01,4.44e-01,
-4.769000e-01,4.44e-01,
-4.768000e-01,4.44e-01,
-4.767000e-01,4.44e-01,
-4.766000e-01,4.44e-01,
-4.765000e-01,4.40e-01,
-4.764000e-01,4.44e-01,
-4.763000e-01,4.40e-01,
-4.762000e-01,4.40e-01,
-4.761000e-01,4.40e-01,
-4.760000e-01,4.40e-01,
-4.759000e-01,4.36e-01,
-4.758000e-01,4.32e-01,
-4.757000e-01,4.32e-01,
-4.756000e-01,4.32e-01,
-4.755000e-01,4.24e-01,
-4.754000e-01,4.32e-01,
-4.753000e-01,4.32e-01,
-4.752000e-01,4.32e-01,
-4.751000e-01,4.24e-01,
-4.750000e-01,4.24e-01,
-4.749000e-01,4.32e-01,
-4.748000e-01,4.32e-01,
-4.747000e-01,4.32e-01,
-4.746000e-01,4.24e-01,
-4.745000e-01,4.24e-01,
-4.744000e-01,4.24e-01,
-4.743000e-01,4.24e-01,
-4.742000e-01,4.20e-01,
-4.741000e-01,4.16e-01,
-4.740000e-01,4.08e-01,
-4.739000e-01,4.24e-01,
-4.738000e-01,4.20e-01,
-4.737000e-01,4.24e-01,
-4.736000e-01,4.12e-01,
-4.735000e-01,4.16e-01,
-4.734000e-01,4.00e-01,
-4.733000e-01,4.08e-01,
-4.732000e-01,4.12e-01,
-4.731000e-01,4.08e-01,
-4.730000e-01,4.08e-01,
-4.729000e-01,4.00e-01,
-4.728000e-01,4.00e-01,
-4.727000e-01,4.00e-01,
-4.726000e-01,4.16e-01,
-4.725000e-01,4.12e-01,
-4.724000e-01,3.96e-01,
-4.723000e-01,4.16e-01,
-4.722000e-01,3.96e-01,
-4.721000e-01,4.20e-01,
-4.720000e-01,4.08e-01,
-4.719000e-01,4.12e-01,
-4.718000e-01,4.08e-01,
-4.717000e-01,4.12e-01,
-4.716000e-01,4.20e-01,
-4.715000e-01,4.24e-01,
-4.714000e-01,4.20e-01,
-4.713000e-01,4.24e-01,
-4.712000e-01,4.16e-01,
-4.711000e-01,4.20e-01,
-4.710000e-01,4.16e-01,
-4.709000e-01,4.00e-01,
-4.708000e-01,3.92e-01,
-4.707000e-01,4.12e-01,
-4.706000e-01,3.92e-01,
-4.705000e-01,4.00e-01,
-4.704000e-01,4.00e-01,
-4.703000e-01,3.96e-01,
-4.702000e-01,3.96e-01,
-4.701000e-01,3.96e-01,
-4.700000e-01,3.92e-01,
-4.699000e-01,3.92e-01,
-4.698000e-01,3.88e-01,
-4.697000e-01,3.92e-01,
-4.696000e-01,4.00e-01,
-4.695000e-01,3.88e-01,
-4.694000e-01,3.92e-01,
-4.693000e-01,3.92e-01,
-4.692000e-01,3.92e-01,
-4.691000e-01,3.88e-01,
-4.690000e-01,3.88e-01,
-4.689000e-01,3.92e-01,
-4.688000e-01,3.92e-01,
-4.687000e-01,3.96e-01,
-4.686000e-01,3.92e-01,
-4.685000e-01,3.92e-01,
-4.684000e-01,3.96e-01,
-4.683000e-01,3.92e-01,
-4.682000e-01,3.96e-01,
-4.681000e-01,3.92e-01,
-4.680000e-01,3.88e-01,
-4.679000e-01,3.92e-01,
-4.678000e-01,3.92e-01,
-4.677000e-01,3.80e-01,
-4.676000e-01,3.88e-01,
-4.675000e-01,3.88e-01,
-4.674000e-01,3.88e-01,
-4.673000e-01,3.88e-01,
-4.672000e-01,3.88e-01,
-4.671000e-01,3.88e-01,
-4.670000e-01,3.88e-01,
-4.669000e-01,4.12e-01,
-4.668000e-01,4.08e-01,
-4.667000e-01,4.16e-01,
-4.666000e-01,4.08e-01,
-4.665000e-01,4.12e-01,
-4.664000e-01,4.36e-01,
-4.663000e-01,4.36e-01,
-4.662000e-01,4.36e-01,
-4.661000e-01,4.20e-01,
-4.660000e-01,4.32e-01,
-4.659000e-01,4.40e-01,
-4.658000e-01,4.36e-01,
-4.657000e-01,4.40e-01,
-4.656000e-01,4.32e-01,
-4.655000e-01,4.44e-01,
-4.654000e-01,4.44e-01,
-4.653000e-01,4.44e-01,
-4.652000e-01,4.44e-01,
-4.651000e-01,4.52e-01,
-4.650000e-01,4.44e-01,
-4.649000e-01,4.44e-01,
-4.648000e-01,4.44e-01,
-4.647000e-01,4.44e-01,
-4.646000e-01,4.52e-01,
-4.645000e-01,4.44e-01,
-4.644000e-01,4.44e-01,
-4.643000e-01,4.44e-01,
-4.642000e-01,4.40e-01,
-4.641000e-01,4.36e-01,
-4.640000e-01,4.40e-01,
-4.639000e-01,4.40e-01,
-4.638000e-01,4.44e-01,
-4.637000e-01,4.40e-01,
-4.636000e-01,4.44e-01,
-4.635000e-01,4.36e-01,
-4.634000e-01,4.16e-01,
-4.633000e-01,4.12e-01,
-4.632000e-01,4.40e-01,
-4.631000e-01,4.40e-01,
-4.630000e-01,4.44e-01,
-4.629000e-01,4.40e-01,
-4.628000e-01,4.36e-01,
-4.627000e-01,4.40e-01,
-4.626000e-01,4.40e-01,
-4.625000e-01,4.40e-01,
-4.624000e-01,4.44e-01,
-4.623000e-01,4.40e-01,
-4.622000e-01,4.40e-01,
-4.621000e-01,4.40e-01,
-4.620000e-01,4.40e-01,
-4.619000e-01,4.44e-01,
-4.618000e-01,4.40e-01,
-4.617000e-01,4.40e-01,
-4.616000e-01,4.40e-01,
-4.615000e-01,4.40e-01,
-4.614000e-01,4.44e-01,
-4.613000e-01,4.40e-01,
-4.612000e-01,4.40e-01,
-4.611000e-01,4.40e-01,
-4.610000e-01,4.40e-01,
-4.609000e-01,4.40e-01,
-4.608000e-01,4.40e-01,
-4.607000e-01,4.40e-01,
-4.606000e-01,4.40e-01,
-4.605000e-01,4.40e-01,
-4.604000e-01,4.40e-01,
-4.603000e-01,4.36e-01,
-4.602000e-01,4.40e-01,
-4.601000e-01,4.40e-01,
-4.600000e-01,4.40e-01,
-4.599000e-01,4.36e-01,
-4.598000e-01,4.40e-01,
-4.597000e-01,4.36e-01,
-4.596000e-01,4.36e-01,
-4.595000e-01,3.96e-01,
-4.594000e-01,4.00e-01,
-4.593000e-01,4.00e-01,
-4.592000e-01,3.96e-01,
-4.591000e-01,4.08e-01,
-4.590000e-01,3.96e-01,
-4.589000e-01,4.08e-01,
-4.588000e-01,4.00e-01,
-4.587000e-01,4.20e-01,
-4.586000e-01,3.96e-01,
-4.585000e-01,4.24e-01,
-4.584000e-01,4.20e-01,
-4.583000e-01,4.20e-01,
-4.582000e-01,4.12e-01,
-4.581000e-01,4.08e-01,
-4.580000e-01,4.00e-01,
-4.579000e-01,4.00e-01,
-4.578000e-01,3.92e-01,
-4.577000e-01,3.96e-01,
-4.576000e-01,4.12e-01,
-4.575000e-01,4.00e-01,
-4.574000e-01,3.96e-01,
-4.573000e-01,3.92e-01,
-4.572000e-01,4.08e-01,
-4.571000e-01,3.92e-01,
-4.570000e-01,3.88e-01,
-4.569000e-01,3.96e-01,
-4.568000e-01,3.80e-01,
-4.567000e-01,3.96e-01,
-4.566000e-01,3.96e-01,
-4.565000e-01,4.00e-01,
-4.564000e-01,3.92e-01,
-4.563000e-01,4.12e-01,
-4.562000e-01,3.92e-01,
-4.561000e-01,4.08e-01,
-4.560000e-01,3.96e-01,
-4.559000e-01,3.96e-01,
-4.558000e-01,3.92e-01,
-4.557000e-01,3.88e-01,
-4.556000e-01,3.96e-01,
-4.555000e-01,3.96e-01,
-4.554000e-01,3.96e-01,
-4.553000e-01,4.16e-01,
-4.552000e-01,4.24e-01,
-4.551000e-01,4.24e-01,
-4.550000e-01,4.24e-01,
-4.549000e-01,4.24e-01,
-4.548000e-01,4.24e-01,
-4.547000e-01,4.24e-01,
-4.546000e-01,4.24e-01,
-4.545000e-01,4.24e-01,
-4.544000e-01,4.24e-01,
-4.543000e-01,4.24e-01,
-4.542000e-01,4.24e-01,
-4.541000e-01,4.20e-01,
-4.540000e-01,4.20e-01,
-4.539000e-01,4.20e-01,
-4.538000e-01,4.20e-01,
-4.537000e-01,4.20e-01,
-4.536000e-01,4.20e-01,
-4.535000e-01,4.20e-01,
-4.534000e-01,4.16e-01,
-4.533000e-01,4.20e-01,
-4.532000e-01,4.20e-01,
-4.531000e-01,4.20e-01,
-4.530000e-01,4.20e-01,
-4.529000e-01,4.20e-01,
-4.528000e-01,4.16e-01,
-4.527000e-01,4.16e-01,
-4.526000e-01,4.16e-01,
-4.525000e-01,4.16e-01,
-4.524000e-01,4.16e-01,
-4.523000e-01,4.12e-01,
-4.522000e-01,4.16e-01,
-4.521000e-01,4.12e-01,
-4.520000e-01,4.16e-01,
-4.519000e-01,4.16e-01,
-4.518000e-01,4.16e-01,
-4.517000e-01,4.16e-01,
-4.516000e-01,4.16e-01,
-4.515000e-01,4.16e-01,
-4.514000e-01,4.12e-01,
-4.513000e-01,4.12e-01,
-4.512000e-01,4.12e-01,
-4.511000e-01,4.16e-01,
-4.510000e-01,4.16e-01,
-4.509000e-01,4.12e-01,
-4.508000e-01,4.16e-01,
-4.507000e-01,4.08e-01,
-4.506000e-01,4.16e-01,
-4.505000e-01,4.16e-01,
-4.504000e-01,4.16e-01,
-4.503000e-01,4.16e-01,
-4.502000e-01,4.12e-01,
-4.501000e-01,4.16e-01,
-4.500000e-01,4.12e-01,
-4.499000e-01,4.12e-01,
-4.498000e-01,4.00e-01,
-4.497000e-01,4.12e-01,
-4.496000e-01,3.88e-01,
-4.495000e-01,3.96e-01,
-4.494000e-01,3.88e-01,
-4.493000e-01,4.00e-01,
-4.492000e-01,3.88e-01,
-4.491000e-01,3.88e-01,
-4.490000e-01,3.88e-01,
-4.489000e-01,3.88e-01,
-4.488000e-01,3.96e-01,
-4.487000e-01,4.00e-01,
-4.486000e-01,3.88e-01,
-4.485000e-01,3.88e-01,
-4.484000e-01,3.88e-01,
-4.483000e-01,3.88e-01,
-4.482000e-01,3.88e-01,
-4.481000e-01,3.88e-01,
-4.480000e-01,3.80e-01,
-4.479000e-01,3.96e-01,
-4.478000e-01,3.92e-01,
-4.477000e-01,3.80e-01,
-4.476000e-01,3.80e-01,
-4.475000e-01,3.88e-01,
-4.474000e-01,3.88e-01,
-4.473000e-01,3.80e-01,
-4.472000e-01,3.96e-01,
-4.471000e-01,3.88e-01,
-4.470000e-01,3.88e-01,
-4.469000e-01,4.00e-01,
-4.468000e-01,3.80e-01,
-4.467000e-01,3.80e-01,
-4.466000e-01,3.80e-01,
-4.465000e-01,3.96e-01,
-4.464000e-01,3.88e-01,
-4.463000e-01,3.88e-01,
-4.462000e-01,3.96e-01,
-4.461000e-01,3.80e-01,
-4.460000e-01,4.08e-01,
-4.459000e-01,3.92e-01,
-4.458000e-01,4.08e-01,
-4.457000e-01,4.08e-01,
-4.456000e-01,4.12e-01,
-4.455000e-01,3.96e-01,
-4.454000e-01,4.12e-01,
-4.453000e-01,4.12e-01,
-4.452000e-01,4.12e-01,
-4.451000e-01,4.16e-01,
-4.450000e-01,4.08e-01,
-4.449000e-01,4.12e-01,
-4.448000e-01,4.12e-01,
-4.447000e-01,4.16e-01,
-4.446000e-01,4.16e-01,
-4.445000e-01,4.16e-01,
-4.444000e-01,4.16e-01,
-4.443000e-01,4.16e-01,
-4.442000e-01,4.16e-01,
-4.441000e-01,4.20e-01,
-4.440000e-01,4.20e-01,
-4.439000e-01,4.20e-01,
-4.438000e-01,4.16e-01,
-4.437000e-01,4.20e-01,
-4.436000e-01,4.20e-01,
-4.435000e-01,4.20e-01,
-4.434000e-01,4.20e-01,
-4.433000e-01,4.20e-01,
-4.432000e-01,4.20e-01,
-4.431000e-01,4.24e-01,
-4.430000e-01,4.24e-01,
-4.429000e-01,4.24e-01,
-4.428000e-01,4.24e-01,
-4.427000e-01,4.20e-01,
-4.426000e-01,4.24e-01,
-4.425000e-01,4.24e-01,
-4.424000e-01,4.24e-01,
-4.423000e-01,4.20e-01,
-4.422000e-01,4.16e-01,
-4.421000e-01,4.20e-01,
-4.420000e-01,4.08e-01,
-4.419000e-01,4.12e-01,
-4.418000e-01,4.16e-01,
-4.417000e-01,4.16e-01,
-4.416000e-01,4.16e-01,
-4.415000e-01,4.16e-01,
-4.414000e-01,3.92e-01,
-4.413000e-01,3.96e-01,
-4.412000e-01,3.96e-01,
-4.411000e-01,4.08e-01,
-4.410000e-01,4.00e-01,
-4.409000e-01,4.00e-01,
-4.408000e-01,4.08e-01,
-4.407000e-01,4.00e-01,
-4.406000e-01,3.92e-01,
-4.405000e-01,4.00e-01,
-4.404000e-01,4.00e-01,
-4.403000e-01,4.00e-01,
-4.402000e-01,4.00e-01,
-4.401000e-01,3.92e-01,
-4.400000e-01,4.08e-01,
-4.399000e-01,4.00e-01,
-4.398000e-01,3.92e-01,
-4.397000e-01,4.08e-01,
-4.396000e-01,4.00e-01,
-4.395000e-01,4.00e-01,
-4.394000e-01,3.96e-01,
-4.393000e-01,3.92e-01,
-4.392000e-01,4.08e-01,
-4.391000e-01,4.16e-01,
-4.390000e-01,3.92e-01,
-4.389000e-01,4.12e-01,
-4.388000e-01,3.96e-01,
-4.387000e-01,4.20e-01,
-4.386000e-01,3.96e-01,
-4.385000e-01,4.20e-01,
-4.384000e-01,4.16e-01,
-4.383000e-01,4.00e-01,
-4.382000e-01,3.96e-01,
-4.381000e-01,4.00e-01,
-4.380000e-01,4.12e-01,
-4.379000e-01,4.08e-01,
-4.378000e-01,3.96e-01,
-4.377000e-01,3.96e-01,
-4.376000e-01,3.96e-01,
-4.375000e-01,3.96e-01,
-4.374000e-01,4.00e-01,
-4.373000e-01,3.96e-01,
-4.372000e-01,4.00e-01,
-4.371000e-01,4.00e-01,
-4.370000e-01,4.12e-01,
-4.369000e-01,4.12e-01,
-4.368000e-01,4.12e-01,
-4.367000e-01,4.00e-01,
-4.366000e-01,4.12e-01,
-4.365000e-01,4.08e-01,
-4.364000e-01,3.96e-01,
-4.363000e-01,4.08e-01,
-4.362000e-01,4.12e-01,
-4.361000e-01,4.12e-01,
-4.360000e-01,4.00e-01,
-4.359000e-01,3.96e-01,
-4.358000e-01,4.20e-01,
-4.357000e-01,4.20e-01,
-4.356000e-01,4.20e-01,
-4.355000e-01,4.08e-01,
-4.354000e-01,4.00e-01,
-4.353000e-01,4.08e-01,
-4.352000e-01,4.00e-01,
-4.351000e-01,4.24e-01,
-4.350000e-01,4.32e-01,
-4.349000e-01,4.36e-01,
-4.348000e-01,4.36e-01,
-4.347000e-01,4.36e-01,
-4.346000e-01,4.36e-01,
-4.345000e-01,4.36e-01,
-4.344000e-01,4.40e-01,
-4.343000e-01,4.40e-01,
-4.342000e-01,4.36e-01,
-4.341000e-01,4.40e-01,
-4.340000e-01,4.40e-01,
-4.339000e-01,4.40e-01,
-4.338000e-01,4.40e-01,
-4.337000e-01,4.40e-01,
-4.336000e-01,4.40e-01,
-4.335000e-01,4.40e-01,
-4.334000e-01,4.40e-01,
-4.333000e-01,4.40e-01,
-4.332000e-01,4.40e-01,
-4.331000e-01,4.40e-01,
-4.330000e-01,4.40e-01,
-4.329000e-01,4.40e-01,
-4.328000e-01,4.40e-01,
-4.327000e-01,4.44e-01,
-4.326000e-01,4.40e-01,
-4.325000e-01,4.40e-01,
-4.324000e-01,4.40e-01,
-4.323000e-01,4.40e-01,
-4.322000e-01,4.40e-01,
-4.321000e-01,4.40e-01,
-4.320000e-01,4.44e-01,
-4.319000e-01,4.40e-01,
-4.318000e-01,4.44e-01,
-4.317000e-01,4.40e-01,
-4.316000e-01,4.40e-01,
-4.315000e-01,4.40e-01,
-4.314000e-01,4.40e-01,
-4.313000e-01,4.40e-01,
-4.312000e-01,4.40e-01,
-4.311000e-01,4.40e-01,
-4.310000e-01,4.40e-01,
-4.309000e-01,4.44e-01,
-4.308000e-01,4.12e-01,
-4.307000e-01,4.40e-01,
-4.306000e-01,4.40e-01,
-4.305000e-01,4.40e-01,
-4.304000e-01,4.40e-01,
-4.303000e-01,4.44e-01,
-4.302000e-01,4.40e-01,
-4.301000e-01,4.44e-01,
-4.300000e-01,4.40e-01,
-4.299000e-01,4.40e-01,
-4.298000e-01,4.40e-01,
-4.297000e-01,4.32e-01,
-4.296000e-01,4.44e-01,
-4.295000e-01,4.44e-01,
-4.294000e-01,4.44e-01,
-4.293000e-01,4.44e-01,
-4.292000e-01,4.40e-01,
-4.291000e-01,4.40e-01,
-4.290000e-01,4.40e-01,
-4.289000e-01,4.44e-01,
-4.288000e-01,4.40e-01,
-4.287000e-01,4.44e-01,
-4.286000e-01,4.52e-01,
-4.285000e-01,4.52e-01,
-4.284000e-01,4.52e-01,
-4.283000e-01,4.52e-01,
-4.282000e-01,4.52e-01,
-4.281000e-01,4.52e-01,
-4.280000e-01,4.52e-01,
-4.279000e-01,4.52e-01,
-4.278000e-01,4.52e-01,
-4.277000e-01,4.44e-01,
-4.276000e-01,4.52e-01,
-4.275000e-01,4.52e-01,
-4.274000e-01,4.52e-01,
-4.273000e-01,4.52e-01,
-4.272000e-01,4.52e-01,
-4.271000e-01,4.52e-01,
-4.270000e-01,4.52e-01,
-4.269000e-01,4.52e-01,
-4.268000e-01,4.52e-01,
-4.267000e-01,4.52e-01,
-4.266000e-01,4.52e-01,
-4.265000e-01,4.52e-01,
-4.264000e-01,4.52e-01,
-4.263000e-01,4.52e-01,
-4.262000e-01,4.52e-01,
-4.261000e-01,4.44e-01,
-4.260000e-01,4.44e-01,
-4.259000e-01,4.52e-01,
-4.258000e-01,4.52e-01,
-4.257000e-01,4.20e-01,
-4.256000e-01,4.32e-01,
-4.255000e-01,4.16e-01,
-4.254000e-01,4.36e-01,
-4.253000e-01,4.36e-01,
-4.252000e-01,4.12e-01,
-4.251000e-01,4.20e-01,
-4.250000e-01,4.36e-01,
-4.249000e-01,4.00e-01,
-4.248000e-01,4.40e-01,
-4.247000e-01,4.00e-01,
-4.246000e-01,4.08e-01,
-4.245000e-01,4.40e-01,
-4.244000e-01,4.00e-01,
-4.243000e-01,4.24e-01,
-4.242000e-01,3.96e-01,
-4.241000e-01,3.96e-01,
-4.240000e-01,4.00e-01,
-4.239000e-01,4.12e-01,
-4.238000e-01,3.88e-01,
-4.237000e-01,4.08e-01,
-4.236000e-01,3.96e-01,
-4.235000e-01,4.36e-01,
-4.234000e-01,3.88e-01,
-4.233000e-01,4.16e-01,
-4.232000e-01,4.32e-01,
-4.231000e-01,3.88e-01,
-4.230000e-01,3.88e-01,
-4.229000e-01,4.16e-01,
-4.228000e-01,3.92e-01,
-4.227000e-01,3.92e-01,
-4.226000e-01,3.96e-01,
-4.225000e-01,3.92e-01,
-4.224000e-01,3.92e-01,
-4.223000e-01,3.96e-01,
-4.222000e-01,3.96e-01,
-4.221000e-01,4.20e-01,
-4.220000e-01,3.92e-01,
-4.219000e-01,3.96e-01,
-4.218000e-01,3.92e-01,
-4.217000e-01,3.92e-01,
-4.216000e-01,4.16e-01,
-4.215000e-01,3.88e-01,
-4.214000e-01,4.08e-01,
-4.213000e-01,3.92e-01,
-4.212000e-01,4.00e-01,
-4.211000e-01,3.96e-01,
-4.210000e-01,3.92e-01,
-4.209000e-01,3.92e-01,
-4.208000e-01,3.92e-01,
-4.207000e-01,3.92e-01,
-4.206000e-01,3.96e-01,
-4.205000e-01,3.92e-01,
-4.204000e-01,3.88e-01,
-4.203000e-01,3.92e-01,
-4.202000e-01,3.92e-01,
-4.201000e-01,4.16e-01,
-4.200000e-01,4.20e-01,
-4.199000e-01,4.20e-01,
-4.198000e-01,4.20e-01,
-4.197000e-01,4.24e-01,
-4.196000e-01,4.20e-01,
-4.195000e-01,4.24e-01,
-4.194000e-01,4.24e-01,
