QPD/data/08-05-25/08-05-25/TEK0024.CSV

Record Length,2.500000e+03,,   0.000000000000,   0.66400,
Sample Interval,2.000000e-03,,   0.002000000000,   0.66400,
Trigger Point,0.000000000000e+00,,   0.004000000000,   0.66400,
,,,   0.006000000000,   0.66400,
,,,   0.008000000000,   0.66400,
,,,   0.010000000000,   0.66400,
Source,CH2,,   0.012000000000,   0.66400,
Vertical Units,V,,   0.014000000000,   0.66400,
Vertical Scale,5.000000e-02,,   0.016000000000,   0.66400,
Vertical Offset,-9.200000e-01,,   0.018000000000,   0.66400,
Horizontal Units,s,,   0.020000000000,   0.66400,
Horizontal Scale,5.000000e-01,,   0.022000000000,   0.66400,
Pt Fmt,Y,,   0.024000000000,   0.66400,
Yzero,0.000000e+00,,   0.026000000000,   0.66400,
Probe Atten,1.000000e+00,,   0.028000000000,   0.66400,
Model Number,TDS1012B,,   0.030000000000,   0.66400,
Serial Number,C102869,,   0.032000000000,   0.66400,
Firmware Version,FV:v22.11,,   0.034000000000,   0.66400,
,,,0.036000000000,   0.66400,
,,,0.038000000000,   0.66400,
,,,0.040000000000,   0.66400,
,,,0.042000000000,   0.66400,
,,,0.044000000000,   0.66400,
,,,0.046000000000,   0.66400,
,,,0.048000000000,   0.66400,
,,,0.050000000000,   0.66400,
,,,0.052000000000,   0.66400,
,,,0.054000000000,   0.66400,
,,,0.056000000000,   0.66400,
,,,0.058000000000,   0.66400,
,,,0.060000000000,   0.66400,
,,,0.062000000000,   0.66400,
,,,0.064000000000,   0.66400,
,,,0.066000000000,   0.66400,
,,,0.068000000000,   0.66400,
,,,0.070000000000,   0.66400,
,,,0.072000000000,   0.66400,
,,,0.074000000000,   0.66400,
,,,0.076000000000,   0.66400,
,,,0.078000000000,   0.66400,
,,,0.080000000000,   0.66400,
,,,0.082000000000,   0.66400,
,,,0.084000000000,   0.66400,
,,,0.086000000000,   0.66400,
,,,0.088000000000,   0.66400,
,,,0.090000000000,   0.66400,
,,,0.092000000000,   0.66400,
,,,0.094000000000,   0.66400,
,,,0.096000000000,   0.66400,
,,,0.098000000000,   0.66400,
,,,0.100000000000,   0.66400,
,,,0.102000000000,   0.66400,
,,,0.104000000000,   0.66400,
,,,0.106000000000,   0.66400,
,,,0.108000000000,   0.66400,
,,,0.110000000000,   0.66400,
,,,0.112000000000,   0.66400,
,,,0.114000000000,   0.66400,
,,,0.116000000000,   0.66400,
,,,0.118000000000,   0.66400,
,,,0.120000000000,   0.66400,
,,,0.122000000000,   0.66400,
,,,0.124000000000,   0.66400,
,,,0.126000000000,   0.66400,
,,,0.128000000000,   0.66400,
,,,0.130000000000,   0.66400,
,,,0.132000000000,   0.66400,
,,,0.134000000000,   0.66400,
,,,0.136000000000,   0.66400,
,,,0.138000000000,   0.66400,
,,,0.140000000000,   0.66400,
,,,0.142000000000,   0.66400,
,,,0.144000000000,   0.66400,
,,,0.146000000000,   0.66400,
,,,0.148000000000,   0.66400,
,,,0.150000000000,   0.66400,
,,,0.152000000000,   0.66400,
,,,0.154000000000,   0.66400,
,,,0.156000000000,   0.66400,
,,,0.158000000000,   0.66400,
,,,0.160000000000,   0.66400,
,,,0.162000000000,   0.66400,
,,,0.164000000000,   0.66400,
,,,0.166000000000,   0.66400,
,,,0.168000000000,   0.66400,
,,,0.170000000000,   0.66400,
,,,0.172000000000,   0.66400,
,,,0.174000000000,   0.66400,
,,,0.176000000000,   0.66400,
,,,0.178000000000,   0.66400,
,,,0.180000000000,   0.66400,
,,,0.182000000000,   0.66400,
,,,0.184000000000,   0.66400,
,,,0.186000000000,   0.66400,
,,,0.188000000000,   0.66400,
,,,0.190000000000,   0.66400,
,,,0.192000000000,   0.66400,
,,,0.194000000000,   0.66400,
,,,0.196000000000,   0.66400,
,,,0.198000000000,   0.66400,
,,,0.200000000000,   0.66400,
,,,0.202000000000,   0.66400,
,,,0.204000000000,   0.66400,
,,,0.206000000000,   0.66400,
,,,0.208000000000,   0.66400,
,,,0.210000000000,   0.66400,
,,,0.212000000000,   0.66400,
,,,0.214000000000,   0.66400,
,,,0.216000000000,   0.66400,
,,,0.218000000000,   0.66400,
,,,0.220000000000,   0.66400,
,,,0.222000000000,   0.66400,
,,,0.224000000000,   0.66400,
,,,0.226000000000,   0.66400,
,,,0.228000000000,   0.66400,
,,,0.230000000000,   0.66400,
,,,0.232000000000,   0.66400,
,,,0.234000000000,   0.66400,
,,,0.236000000000,   0.66400,
,,,0.238000000000,   0.66400,
,,,0.240000000000,   0.66400,
,,,0.242000000000,   0.66400,
,,,0.244000000000,   0.66400,
,,,0.246000000000,   0.66400,
,,,0.248000000000,   0.66400,
,,,0.250000000000,   0.66400,
,,,0.252000000000,   0.66400,
,,,0.254000000000,   0.66400,
,,,0.256000000000,   0.66400,
,,,0.258000000000,   0.66400,
,,,0.260000000000,   0.66400,
,,,0.262000000000,   0.66400,
,,,0.264000000000,   0.66400,
,,,0.266000000000,   0.66400,
,,,0.268000000000,   0.66400,
,,,0.270000000000,   0.66400,
,,,0.272000000000,   0.66400,
,,,0.274000000000,   0.66400,
,,,0.276000000000,   0.66400,
,,,0.278000000000,   0.66400,
,,,0.280000000000,   0.66400,
,,,0.282000000000,   0.66400,
,,,0.284000000000,   0.66400,
,,,0.286000000000,   0.66400,
,,,0.288000000000,   0.66400,
,,,0.290000000000,   0.66400,
,,,0.292000000000,   0.66400,
,,,0.294000000000,   0.66400,
,,,0.296000000000,   0.66400,
,,,0.298000000000,   0.66400,
,,,0.300000000000,   0.66400,
,,,0.302000000000,   0.66400,
,,,0.304000000000,   0.66400,
,,,0.306000000000,   0.66400,
,,,0.308000000000,   0.66400,
,,,0.310000000000,   0.66400,
,,,0.312000000000,   0.66400,
,,,0.314000000000,   0.66400,
,,,0.316000000000,   0.66400,
,,,0.318000000000,   0.66400,
,,,0.320000000000,   0.66400,
,,,0.322000000000,   0.66400,
,,,0.324000000000,   0.66400,
,,,0.326000000000,   0.66400,
,,,0.328000000000,   0.66400,
,,,0.330000000000,   0.66400,
,,,0.332000000000,   0.66400,
,,,0.334000000000,   0.66400,
,,,0.336000000000,   0.66400,
,,,0.338000000000,   0.66400,
,,,0.340000000000,   0.66400,
,,,0.342000000000,   0.66400,
,,,0.344000000000,   0.66400,
,,,0.346000000000,   0.66400,
,,,0.348000000000,   0.66400,
,,,0.350000000000,   0.66400,
,,,0.352000000000,   0.66400,
,,,0.354000000000,   0.66400,
,,,0.356000000000,   0.66400,
,,,0.358000000000,   0.66400,
,,,0.360000000000,   0.66400,
,,,0.362000000000,   0.66400,
,,,0.364000000000,   0.66400,
,,,0.366000000000,   0.66400,
,,,0.368000000000,   0.66400,
,,,0.370000000000,   0.66400,
,,,0.372000000000,   0.66400,
,,,0.374000000000,   0.66400,
,,,0.376000000000,   0.66400,
,,,0.378000000000,   0.66400,
,,,0.380000000000,   0.66400,
,,,0.382000000000,   0.66400,
,,,0.384000000000,   0.66400,
,,,0.386000000000,   0.66400,
,,,0.388000000000,   0.66400,
,,,0.390000000000,   0.66400,
,,,0.392000000000,   0.66400,
,,,0.394000000000,   0.66400,
,,,0.396000000000,   0.93000,
,,,0.398000000000,   0.99600,
,,,0.400000000000,   1.01000,
,,,0.402000000000,   0.99800,
,,,0.404000000000,   0.99200,
,,,0.406000000000,   1.01600,
,,,0.408000000000,   0.95800,
,,,0.410000000000,   0.94400,
,,,0.412000000000,   0.95000,
,,,0.414000000000,   0.94400,
,,,0.416000000000,   0.94600,
,,,0.418000000000,   0.94800,
,,,0.420000000000,   0.98600,
,,,0.422000000000,   0.98800,
,,,0.424000000000,   1.00600,
,,,0.426000000000,   1.04000,
,,,0.428000000000,   0.99200,
,,,0.430000000000,   0.97000,
,,,0.432000000000,   1.00000,
,,,0.434000000000,   0.98000,
,,,0.436000000000,   1.01400,
,,,0.438000000000,   1.01800,
,,,0.440000000000,   1.06400,
,,,0.442000000000,   1.04200,
,,,0.444000000000,   1.00000,
,,,0.446000000000,   0.99200,
,,,0.448000000000,   0.99000,
,,,0.450000000000,   0.93200,
,,,0.452000000000,   0.87600,
,,,0.454000000000,   0.88000,
,,,0.456000000000,   0.91000,
,,,0.458000000000,   0.92600,
,,,0.460000000000,   0.93400,
,,,0.462000000000,   0.96200,
,,,0.464000000000,   0.99000,
,,,0.466000000000,   1.01000,
,,,0.468000000000,   1.00200,
,,,0.470000000000,   1.02200,
,,,0.472000000000,   1.02600,
,,,0.474000000000,   1.00600,
,,,0.476000000000,   1.00200,
,,,0.478000000000,   0.99400,
,,,0.480000000000,   0.98800,
,,,0.482000000000,   0.99200,
,,,0.484000000000,   0.99600,
,,,0.486000000000,   1.01400,
,,,0.488000000000,   1.04600,
,,,0.490000000000,   1.00000,
,,,0.492000000000,   0.98400,
,,,0.494000000000,   0.97000,
,,,0.496000000000,   0.91800,
,,,0.498000000000,   0.93600,
,,,0.500000000000,   0.96600,
,,,0.502000000000,   0.96600,
,,,0.504000000000,   0.95200,
,,,0.506000000000,   0.91000,
,,,0.508000000000,   0.93600,
,,,0.510000000000,   0.97400,
,,,0.512000000000,   0.98600,
,,,0.514000000000,   0.93400,
,,,0.516000000000,   0.99200,
,,,0.518000000000,   0.92400,
,,,0.520000000000,   1.00200,
,,,0.522000000000,   0.98200,
,,,0.524000000000,   0.97800,
,,,0.526000000000,   0.97800,
,,,0.528000000000,   0.97600,
,,,0.530000000000,   0.97800,
,,,0.532000000000,   0.99800,
,,,0.534000000000,   1.00600,
,,,0.536000000000,   1.01200,
,,,0.538000000000,   0.99600,
,,,0.540000000000,   0.95800,
,,,0.542000000000,   0.95400,
,,,0.544000000000,   0.96400,
,,,0.546000000000,   0.91200,
,,,0.548000000000,   0.85800,
,,,0.550000000000,   0.87000,
,,,0.552000000000,   0.86400,
,,,0.554000000000,   0.89000,
,,,0.556000000000,   0.84400,
,,,0.558000000000,   0.85400,
,,,0.560000000000,   0.87800,
,,,0.562000000000,   0.85200,
,,,0.564000000000,   0.85400,
,,,0.566000000000,   0.85200,
,,,0.568000000000,   0.91600,
,,,0.570000000000,   0.94800,
,,,0.572000000000,   0.89000,
,,,0.574000000000,   0.91200,
,,,0.576000000000,   0.86800,
,,,0.578000000000,   0.88600,
,,,0.580000000000,   0.94200,
,,,0.582000000000,   1.00400,
,,,0.584000000000,   0.98600,
,,,0.586000000000,   0.96400,
,,,0.588000000000,   0.97800,
,,,0.590000000000,   0.95600,
,,,0.592000000000,   1.01800,
,,,0.594000000000,   1.01600,
,,,0.596000000000,   1.03400,
,,,0.598000000000,   1.02600,
,,,0.600000000000,   1.00000,
,,,0.602000000000,   0.97200,
,,,0.604000000000,   0.99400,
,,,0.606000000000,   1.00600,
,,,0.608000000000,   1.04200,
,,,0.610000000000,   1.01800,
,,,0.612000000000,   1.00200,
,,,0.614000000000,   1.00200,
,,,0.616000000000,   0.95400,
,,,0.618000000000,   0.96400,
,,,0.620000000000,   0.96200,
,,,0.622000000000,   0.93400,
,,,0.624000000000,   0.91400,
,,,0.626000000000,   0.93400,
,,,0.628000000000,   0.99600,
,,,0.630000000000,   0.96600,
,,,0.632000000000,   0.98400,
,,,0.634000000000,   1.00000,
,,,0.636000000000,   1.03600,
,,,0.638000000000,   1.00600,
,,,0.640000000000,   1.00000,
,,,0.642000000000,   0.97800,
,,,0.644000000000,   0.94800,
,,,0.646000000000,   0.95600,
,,,0.648000000000,   0.90800,
,,,0.650000000000,   0.92400,
,,,0.652000000000,   0.89400,
,,,0.654000000000,   0.85400,
,,,0.656000000000,   0.90200,
,,,0.658000000000,   0.95600,
,,,0.660000000000,   0.86600,
,,,0.662000000000,   0.89000,
,,,0.664000000000,   0.87400,
,,,0.666000000000,   0.87800,
,,,0.668000000000,   0.86000,
,,,0.670000000000,   0.87000,
,,,0.672000000000,   0.92000,
,,,0.674000000000,   0.91800,
,,,0.676000000000,   0.92400,
,,,0.678000000000,   0.87000,
,,,0.680000000000,   0.93000,
,,,0.682000000000,   0.94200,
,,,0.684000000000,   0.93600,
,,,0.686000000000,   0.94000,
,,,0.688000000000,   0.94200,
,,,0.690000000000,   0.96400,
,,,0.692000000000,   1.00000,
,,,0.694000000000,   0.97200,
,,,0.696000000000,   0.89800,
,,,0.698000000000,   0.87400,
,,,0.700000000000,   0.88200,
,,,0.702000000000,   0.88400,
,,,0.704000000000,   0.95600,
,,,0.706000000000,   0.94200,
,,,0.708000000000,   0.86600,
,,,0.710000000000,   0.86000,
,,,0.712000000000,   0.86600,
,,,0.714000000000,   0.86200,
,,,0.716000000000,   0.85800,
,,,0.718000000000,   0.83600,
,,,0.720000000000,   0.88200,
,,,0.722000000000,   0.90200,
,,,0.724000000000,   0.95800,
,,,0.726000000000,   0.92600,
,,,0.728000000000,   0.87800,
,,,0.730000000000,   0.89400,
,,,0.732000000000,   0.91800,
,,,0.734000000000,   0.93000,
,,,0.736000000000,   0.91600,
,,,0.738000000000,   0.96200,
,,,0.740000000000,   0.90200,
,,,0.742000000000,   0.97000,
,,,0.744000000000,   1.02200,
,,,0.746000000000,   0.99800,
,,,0.748000000000,   0.97000,
,,,0.750000000000,   0.97400,
,,,0.752000000000,   0.91800,
,,,0.754000000000,   0.97000,
,,,0.756000000000,   0.98200,
,,,0.758000000000,   1.02400,
,,,0.760000000000,   0.99000,
,,,0.762000000000,   0.97400,
,,,0.764000000000,   0.97400,
,,,0.766000000000,   0.97200,
,,,0.768000000000,   0.94800,
,,,0.770000000000,   0.96800,
,,,0.772000000000,   0.94400,
,,,0.774000000000,   0.98000,
,,,0.776000000000,   1.00000,
,,,0.778000000000,   0.99200,
,,,0.780000000000,   0.98600,
,,,0.782000000000,   0.99600,
,,,0.784000000000,   0.94600,
,,,0.786000000000,   0.95800,
,,,0.788000000000,   1.01000,
,,,0.790000000000,   0.98800,
,,,0.792000000000,   0.89400,
,,,0.794000000000,   0.90400,
,,,0.796000000000,   0.93400,
,,,0.798000000000,   0.94000,
,,,0.800000000000,   0.93000,
,,,0.802000000000,   0.94600,
,,,0.804000000000,   0.89200,
,,,0.806000000000,   0.92000,
,,,0.808000000000,   0.93000,
,,,0.810000000000,   1.01600,
,,,0.812000000000,   0.98200,
,,,0.814000000000,   0.98800,
,,,0.816000000000,   0.91800,
,,,0.818000000000,   0.95600,
,,,0.820000000000,   0.98800,
,,,0.822000000000,   0.99400,
,,,0.824000000000,   0.98000,
,,,0.826000000000,   0.98400,
,,,0.828000000000,   1.03000,
,,,0.830000000000,   1.02800,
,,,0.832000000000,   0.97600,
,,,0.834000000000,   0.95800,
,,,0.836000000000,   0.97400,
,,,0.838000000000,   1.00000,
,,,0.840000000000,   0.92400,
,,,0.842000000000,   0.90800,
,,,0.844000000000,   0.91800,
,,,0.846000000000,   0.91800,
,,,0.848000000000,   0.93200,
,,,0.850000000000,   0.90800,
,,,0.852000000000,   0.93800,
,,,0.854000000000,   0.93600,
,,,0.856000000000,   0.93200,
,,,0.858000000000,   0.96600,
,,,0.860000000000,   0.97800,
,,,0.862000000000,   1.00000,
,,,0.864000000000,   0.98600,
,,,0.866000000000,   0.98000,
,,,0.868000000000,   0.95600,
,,,0.870000000000,   1.05400,
,,,0.872000000000,   1.02400,
,,,0.874000000000,   0.98600,
,,,0.876000000000,   0.96000,
,,,0.878000000000,   0.98800,
,,,0.880000000000,   0.89600,
,,,0.882000000000,   0.91200,
,,,0.884000000000,   0.87400,
,,,0.886000000000,   0.88800,
,,,0.888000000000,   0.91200,
,,,0.890000000000,   0.91800,
,,,0.892000000000,   0.91400,
,,,0.894000000000,   0.88000,
,,,0.896000000000,   0.89400,
,,,0.898000000000,   0.90200,
,,,0.900000000000,   0.89000,
,,,0.902000000000,   0.90400,
,,,0.904000000000,   0.91400,
,,,0.906000000000,   0.92400,
,,,0.908000000000,   0.94600,
,,,0.910000000000,   0.96400,
,,,0.912000000000,   0.98800,
,,,0.914000000000,   0.99600,
,,,0.916000000000,   1.00800,
,,,0.918000000000,   1.00400,
,,,0.920000000000,   0.97800,
,,,0.922000000000,   0.98800,
,,,0.924000000000,   1.01400,
,,,0.926000000000,   1.01000,
,,,0.928000000000,   0.95800,
,,,0.930000000000,   0.94400,
,,,0.932000000000,   0.93800,
,,,0.934000000000,   0.89200,
,,,0.936000000000,   0.90200,
,,,0.938000000000,   0.90800,
,,,0.940000000000,   0.97200,
,,,0.942000000000,   0.92200,
,,,0.944000000000,   0.87800,
,,,0.946000000000,   0.85800,
,,,0.948000000000,   0.87800,
,,,0.950000000000,   0.85400,
,,,0.952000000000,   0.86600,
,,,0.954000000000,   0.89200,
,,,0.956000000000,   0.91400,
,,,0.958000000000,   0.91000,
,,,0.960000000000,   0.87000,
,,,0.962000000000,   0.88000,
,,,0.964000000000,   0.90200,
,,,0.966000000000,   0.89200,
,,,0.968000000000,   0.94400,
,,,0.970000000000,   0.92600,
,,,0.972000000000,   0.88200,
,,,0.974000000000,   0.85800,
,,,0.976000000000,   0.86000,
,,,0.978000000000,   0.90400,
,,,0.980000000000,   0.91600,
,,,0.982000000000,   0.96800,
,,,0.984000000000,   0.96800,
,,,0.986000000000,   0.90400,
,,,0.988000000000,   0.90200,
,,,0.990000000000,   0.96400,
,,,0.992000000000,   0.93600,
,,,0.994000000000,   1.01000,
,,,0.996000000000,   0.99200,
,,,0.998000000000,   0.96400,
,,,1.000000000000,   0.91200,
,,,1.002000000000,   0.93200,
,,,1.004000000000,   0.93400,
,,,1.006000000000,   0.96200,
,,,1.008000000000,   0.96800,
,,,1.010000000000,   0.95600,
,,,1.012000000000,   0.96200,
,,,1.014000000000,   0.94400,
,,,1.016000000000,   0.95200,
,,,1.018000000000,   0.96400,
,,,1.020000000000,   0.94800,
,,,1.022000000000,   0.88400,
,,,1.024000000000,   0.91200,
,,,1.026000000000,   0.91000,
,,,1.028000000000,   0.85800,
,,,1.030000000000,   0.88600,
,,,1.032000000000,   0.88000,
,,,1.034000000000,   0.90200,
,,,1.036000000000,   0.92800,
,,,1.038000000000,   0.91200,
,,,1.040000000000,   0.91600,
,,,1.042000000000,   0.95400,
,,,1.044000000000,   0.95800,
,,,1.046000000000,   0.92200,
,,,1.048000000000,   0.90400,
,,,1.050000000000,   0.94200,
,,,1.052000000000,   0.89000,
,,,1.054000000000,   0.88800,
,,,1.056000000000,   0.91800,
,,,1.058000000000,   0.95800,
,,,1.060000000000,   0.93000,
,,,1.062000000000,   0.93600,
,,,1.064000000000,   0.91200,
,,,1.066000000000,   0.94200,
,,,1.068000000000,   0.97800,
,,,1.070000000000,   0.97800,
,,,1.072000000000,   0.95200,
,,,1.074000000000,   0.93400,
,,,1.076000000000,   0.92200,
,,,1.078000000000,   0.89200,
,,,1.080000000000,   0.88600,
,,,1.082000000000,   0.88200,
,,,1.084000000000,   0.92800,
,,,1.086000000000,   0.92800,
,,,1.088000000000,   0.90400,
,,,1.090000000000,   0.88200,
,,,1.092000000000,   0.85200,
,,,1.094000000000,   0.87000,
,,,1.096000000000,   0.88600,
,,,1.098000000000,   0.97800,
,,,1.100000000000,   0.92800,
,,,1.102000000000,   0.96200,
,,,1.104000000000,   1.00200,
,,,1.106000000000,   1.02000,
,,,1.108000000000,   1.01000,
,,,1.110000000000,   1.02600,
,,,1.112000000000,   1.00600,
,,,1.114000000000,   1.03000,
,,,1.116000000000,   1.00200,
,,,1.118000000000,   0.98800,
,,,1.120000000000,   0.97800,
,,,1.122000000000,   1.00200,
,,,1.124000000000,   0.96400,
,,,1.126000000000,   0.97000,
,,,1.128000000000,   0.87400,
,,,1.130000000000,   0.87400,
,,,1.132000000000,   0.84200,
,,,1.134000000000,   0.85800,
,,,1.136000000000,   0.89200,
,,,1.138000000000,   0.93400,
,,,1.140000000000,   0.87400,
,,,1.142000000000,   0.87000,
,,,1.144000000000,   0.94800,
,,,1.146000000000,   0.95000,
,,,1.148000000000,   0.96200,
,,,1.150000000000,   0.95400,
,,,1.152000000000,   0.89600,
,,,1.154000000000,   0.88000,
,,,1.156000000000,   0.88400,
,,,1.158000000000,   0.90200,
,,,1.160000000000,   0.92400,
,,,1.162000000000,   0.93800,
,,,1.164000000000,   0.93800,
,,,1.166000000000,   0.93400,
,,,1.168000000000,   0.91800,
,,,1.170000000000,   0.90200,
,,,1.172000000000,   0.96000,
,,,1.174000000000,   0.87200,
,,,1.176000000000,   0.87400,
,,,1.178000000000,   0.93400,
,,,1.180000000000,   0.92800,
,,,1.182000000000,   0.93200,
,,,1.184000000000,   0.86600,
,,,1.186000000000,   0.85000,
,,,1.188000000000,   0.87200,
,,,1.190000000000,   0.86400,
,,,1.192000000000,   0.86400,
,,,1.194000000000,   0.88600,
,,,1.196000000000,   0.88400,
,,,1.198000000000,   0.93200,
,,,1.200000000000,   0.94200,
,,,1.202000000000,   0.99800,
,,,1.204000000000,   0.91000,
,,,1.206000000000,   0.92600,
,,,1.208000000000,   0.93400,
,,,1.210000000000,   0.98800,
,,,1.212000000000,   0.96200,
,,,1.214000000000,   0.96400,
,,,1.216000000000,   0.94200,
,,,1.218000000000,   0.95400,
,,,1.220000000000,   0.94600,
,,,1.222000000000,   0.97600,
,,,1.224000000000,   1.00000,
,,,1.226000000000,   0.99600,
,,,1.228000000000,   0.96800,
,,,1.230000000000,   0.95000,
,,,1.232000000000,   1.00600,
,,,1.234000000000,   1.05800,
,,,1.236000000000,   1.03800,
,,,1.238000000000,   1.01800,
,,,1.240000000000,   1.02800,
,,,1.242000000000,   1.03600,
,,,1.244000000000,   1.02400,
,,,1.246000000000,   0.98200,
,,,1.248000000000,   0.98800,
,,,1.250000000000,   0.96600,
,,,1.252000000000,   0.96400,
,,,1.254000000000,   0.93400,
,,,1.256000000000,   0.96800,
,,,1.258000000000,   0.90400,
,,,1.260000000000,   0.94800,
,,,1.262000000000,   0.92800,
,,,1.264000000000,   0.92200,
,,,1.266000000000,   0.94400,
,,,1.268000000000,   0.89400,
,,,1.270000000000,   0.89000,
,,,1.272000000000,   0.89200,
,,,1.274000000000,   0.88600,
,,,1.276000000000,   0.93400,
,,,1.278000000000,   0.96200,
,,,1.280000000000,   0.98000,
,,,1.282000000000,   0.99800,
,,,1.284000000000,   0.99400,
,,,1.286000000000,   0.96400,
,,,1.288000000000,   0.94600,
,,,1.290000000000,   0.95400,
,,,1.292000000000,   0.96000,
,,,1.294000000000,   0.95800,
,,,1.296000000000,   1.02200,
,,,1.298000000000,   0.99800,
,,,1.300000000000,   1.02600,
,,,1.302000000000,   1.02600,
,,,1.304000000000,   1.00000,
,,,1.306000000000,   0.97000,
