QPD/data/08-05-25/08-05-25/TEK0002.CSV

Record Length,2.500000e+03,,   0.000000000000,  -0.06400,
Sample Interval,4.000000e-03,,   0.004000000000,  -0.06400,
Trigger Point,0.000000000000e+00,,   0.008000000000,  -0.06400,
,,,   0.012000000000,  -0.06400,
,,,   0.016000000000,  -0.06400,
,,,   0.020000000000,  -0.06400,
Source,CH2,,   0.024000000000,  -0.06400,
Vertical Units,V,,   0.028000000000,  -0.06400,
Vertical Scale,1.000000e-01,,   0.032000000000,  -0.06400,
Vertical Offset,-4.480000e-01,,   0.036000000000,  -0.06400,
Horizontal Units,s,,   0.040000000000,  -0.06400,
Horizontal Scale,1.000000e+00,,   0.044000000000,  -0.06400,
Pt Fmt,Y,,   0.048000000000,  -0.06400,
Yzero,0.000000e+00,,   0.052000000000,  -0.06400,
Probe Atten,1.000000e+00,,   0.056000000000,  -0.06400,
Model Number,TDS1012B,,   0.060000000000,  -0.06400,
Serial Number,C102869,,   0.064000000000,  -0.06400,
Firmware Version,FV:v22.11,,   0.068000000000,  -0.06400,
,,,0.072000000000,  -0.06400,
,,,0.076000000000,  -0.06400,
,,,0.080000000000,  -0.06400,
,,,0.084000000000,  -0.06400,
,,,0.088000000000,  -0.06400,
,,,0.092000000000,  -0.06400,
,,,0.096000000000,  -0.06400,
,,,0.100000000000,  -0.06400,
,,,0.104000000000,  -0.06400,
,,,0.108000000000,  -0.06400,
,,,0.112000000000,  -0.06400,
,,,0.116000000000,  -0.06400,
,,,0.120000000000,  -0.06400,
,,,0.124000000000,  -0.06400,
,,,0.128000000000,  -0.06400,
,,,0.132000000000,  -0.06400,
,,,0.136000000000,  -0.06400,
,,,0.140000000000,  -0.06400,
,,,0.144000000000,  -0.06400,
,,,0.148000000000,  -0.06400,
,,,0.152000000000,  -0.06400,
,,,0.156000000000,  -0.06400,
,,,0.160000000000,  -0.06400,
,,,0.164000000000,  -0.06400,
,,,0.168000000000,  -0.06400,
,,,0.172000000000,  -0.06400,
,,,0.176000000000,   0.51600,
,,,0.180000000000,   0.50000,
,,,0.184000000000,   0.48800,
,,,0.188000000000,   0.50400,
,,,0.192000000000,   0.49200,
,,,0.196000000000,   0.50400,
,,,0.200000000000,   0.51200,
,,,0.204000000000,   0.48800,
,,,0.208000000000,   0.49200,
,,,0.212000000000,   0.48800,
,,,0.216000000000,   0.49600,
,,,0.220000000000,   0.50000,
,,,0.224000000000,   0.49600,
,,,0.228000000000,   0.49600,
,,,0.232000000000,   0.48400,
,,,0.236000000000,   0.49600,
,,,0.240000000000,   0.50000,
,,,0.244000000000,   0.48000,
,,,0.248000000000,   0.48000,
,,,0.252000000000,   0.49200,
,,,0.256000000000,   0.48800,
,,,0.260000000000,   0.46400,
,,,0.264000000000,   0.47600,
,,,0.268000000000,   0.48000,
,,,0.272000000000,   0.48800,
,,,0.276000000000,   0.49200,
,,,0.280000000000,   0.49200,
,,,0.284000000000,   0.46800,
,,,0.288000000000,   0.49200,
,,,0.292000000000,   0.48000,
,,,0.296000000000,   0.46800,
,,,0.300000000000,   0.48400,
,,,0.304000000000,   0.48800,
,,,0.308000000000,   0.48000,
,,,0.312000000000,   0.49200,
,,,0.316000000000,   0.48800,
,,,0.320000000000,   0.48400,
,,,0.324000000000,   0.49200,
,,,0.328000000000,   0.48800,
,,,0.332000000000,   0.48800,
,,,0.336000000000,   0.50000,
,,,0.340000000000,   0.51600,
,,,0.344000000000,   0.52800,
,,,0.348000000000,   0.52000,
,,,0.352000000000,   0.52400,
,,,0.356000000000,   0.50800,
,,,0.360000000000,   0.51200,
,,,0.364000000000,   0.50000,
,,,0.368000000000,   0.51600,
,,,0.372000000000,   0.52800,
,,,0.376000000000,   0.49600,
,,,0.380000000000,   0.50800,
,,,0.384000000000,   0.50800,
,,,0.388000000000,   0.50400,
,,,0.392000000000,   0.52800,
,,,0.396000000000,   0.50800,
,,,0.400000000000,   0.51200,
,,,0.404000000000,   0.54000,
,,,0.408000000000,   0.52400,
,,,0.412000000000,   0.52400,
,,,0.416000000000,   0.52400,
,,,0.420000000000,   0.52800,
,,,0.424000000000,   0.52000,
,,,0.428000000000,   0.54800,
,,,0.432000000000,   0.53200,
,,,0.436000000000,   0.51200,
,,,0.440000000000,   0.50400,
,,,0.444000000000,   0.49600,
,,,0.448000000000,   0.52800,
,,,0.452000000000,   0.51200,
,,,0.456000000000,   0.51600,
,,,0.460000000000,   0.52000,
,,,0.464000000000,   0.50800,
,,,0.468000000000,   0.49600,
,,,0.472000000000,   0.50800,
,,,0.476000000000,   0.49600,
,,,0.480000000000,   0.50400,
,,,0.484000000000,   0.52800,
,,,0.488000000000,   0.52800,
,,,0.492000000000,   0.52000,
,,,0.496000000000,   0.50000,
,,,0.500000000000,   0.51200,
,,,0.504000000000,   0.52000,
,,,0.508000000000,   0.51200,
,,,0.512000000000,   0.52000,
,,,0.516000000000,   0.52000,
,,,0.520000000000,   0.50400,
,,,0.524000000000,   0.50400,
,,,0.528000000000,   0.50800,
,,,0.532000000000,   0.50000,
,,,0.536000000000,   0.49600,
,,,0.540000000000,   0.50400,
,,,0.544000000000,   0.51200,
,,,0.548000000000,   0.51200,
,,,0.552000000000,   0.50400,
,,,0.556000000000,   0.51600,
,,,0.560000000000,   0.50400,
,,,0.564000000000,   0.48000,
,,,0.568000000000,   0.48400,
,,,0.572000000000,   0.49200,
,,,0.576000000000,   0.51200,
,,,0.580000000000,   0.51200,
,,,0.584000000000,   0.52000,
,,,0.588000000000,   0.52000,
,,,0.592000000000,   0.52400,
,,,0.596000000000,   0.51600,
,,,0.600000000000,   0.51200,
,,,0.604000000000,   0.52000,
,,,0.608000000000,   0.52800,
,,,0.612000000000,   0.54000,
,,,0.616000000000,   0.52400,
,,,0.620000000000,   0.52400,
,,,0.624000000000,   0.51600,
,,,0.628000000000,   0.52800,
,,,0.632000000000,   0.52000,
,,,0.636000000000,   0.52000,
,,,0.640000000000,   0.51200,
,,,0.644000000000,   0.53200,
,,,0.648000000000,   0.51200,
,,,0.652000000000,   0.50400,
,,,0.656000000000,   0.52000,
,,,0.660000000000,   0.50000,
,,,0.664000000000,   0.51200,
,,,0.668000000000,   0.50400,
,,,0.672000000000,   0.52000,
,,,0.676000000000,   0.52000,
,,,0.680000000000,   0.53200,
,,,0.684000000000,   0.53200,
,,,0.688000000000,   0.51200,
,,,0.692000000000,   0.50400,
,,,0.696000000000,   0.52800,
,,,0.700000000000,   0.52000,
,,,0.704000000000,   0.51200,
,,,0.708000000000,   0.53200,
,,,0.712000000000,   0.52800,
,,,0.716000000000,   0.50400,
,,,0.720000000000,   0.50400,
,,,0.724000000000,   0.50400,
,,,0.728000000000,   0.51200,
,,,0.732000000000,   0.50800,
,,,0.736000000000,   0.50800,
,,,0.740000000000,   0.49200,
,,,0.744000000000,   0.49200,
,,,0.748000000000,   0.52000,
,,,0.752000000000,   0.49200,
,,,0.756000000000,   0.50400,
,,,0.760000000000,   0.51200,
,,,0.764000000000,   0.50800,
,,,0.768000000000,   0.52000,
,,,0.772000000000,   0.52000,
,,,0.776000000000,   0.51600,
,,,0.780000000000,   0.52400,
,,,0.784000000000,   0.52000,
,,,0.788000000000,   0.51600,
,,,0.792000000000,   0.51200,
,,,0.796000000000,   0.50000,
,,,0.800000000000,   0.50000,
,,,0.804000000000,   0.50000,
,,,0.808000000000,   0.51600,
,,,0.812000000000,   0.50400,
,,,0.816000000000,   0.48400,
,,,0.820000000000,   0.47200,
,,,0.824000000000,   0.48400,
,,,0.828000000000,   0.49600,
,,,0.832000000000,   0.50000,
,,,0.836000000000,   0.48400,
,,,0.840000000000,   0.49600,
,,,0.844000000000,   0.49200,
,,,0.848000000000,   0.49200,
,,,0.852000000000,   0.50000,
,,,0.856000000000,   0.49600,
,,,0.860000000000,   0.50000,
,,,0.864000000000,   0.52000,
,,,0.868000000000,   0.54000,
,,,0.872000000000,   0.51600,
,,,0.876000000000,   0.51200,
,,,0.880000000000,   0.51600,
,,,0.884000000000,   0.50000,
,,,0.888000000000,   0.51600,
,,,0.892000000000,   0.52000,
,,,0.896000000000,   0.52400,
,,,0.900000000000,   0.51600,
,,,0.904000000000,   0.52000,
,,,0.908000000000,   0.52400,
,,,0.912000000000,   0.51600,
,,,0.916000000000,   0.52000,
,,,0.920000000000,   0.52000,
,,,0.924000000000,   0.51200,
,,,0.928000000000,   0.52400,
,,,0.932000000000,   0.53200,
,,,0.936000000000,   0.51200,
,,,0.940000000000,   0.52800,
,,,0.944000000000,   0.53200,
,,,0.948000000000,   0.53200,
,,,0.952000000000,   0.52000,
,,,0.956000000000,   0.52800,
,,,0.960000000000,   0.52800,
,,,0.964000000000,   0.53200,
,,,0.968000000000,   0.52000,
,,,0.972000000000,   0.52400,
,,,0.976000000000,   0.52000,
,,,0.980000000000,   0.52800,
,,,0.984000000000,   0.53600,
,,,0.988000000000,   0.52400,
,,,0.992000000000,   0.54400,
,,,0.996000000000,   0.54000,
,,,1.000000000000,   0.53600,
,,,1.004000000000,   0.52400,
,,,1.008000000000,   0.52000,
,,,1.012000000000,   0.52800,
,,,1.016000000000,   0.53600,
,,,1.020000000000,   0.52000,
,,,1.024000000000,   0.53200,
,,,1.028000000000,   0.52000,
,,,1.032000000000,   0.52000,
,,,1.036000000000,   0.52000,
,,,1.040000000000,   0.53200,
,,,1.044000000000,   0.53600,
,,,1.048000000000,   0.53200,
,,,1.052000000000,   0.51200,
,,,1.056000000000,   0.51600,
,,,1.060000000000,   0.51600,
,,,1.064000000000,   0.53600,
,,,1.068000000000,   0.51600,
,,,1.072000000000,   0.51600,
,,,1.076000000000,   0.50400,
,,,1.080000000000,   0.49600,
,,,1.084000000000,   0.50400,
,,,1.088000000000,   0.50000,
,,,1.092000000000,   0.50800,
,,,1.096000000000,   0.49200,
,,,1.100000000000,   0.47600,
,,,1.104000000000,   0.50400,
,,,1.108000000000,   0.52800,
,,,1.112000000000,   0.50800,
,,,1.116000000000,   0.52400,
,,,1.120000000000,   0.52000,
,,,1.124000000000,   0.49600,
,,,1.128000000000,   0.51200,
,,,1.132000000000,   0.48800,
,,,1.136000000000,   0.48800,
,,,1.140000000000,   0.50400,
,,,1.144000000000,   0.49600,
,,,1.148000000000,   0.50400,
,,,1.152000000000,   0.50400,
,,,1.156000000000,   0.49200,
,,,1.160000000000,   0.51200,
,,,1.164000000000,   0.48800,
,,,1.168000000000,   0.50800,
,,,1.172000000000,   0.51600,
,,,1.176000000000,   0.50000,
,,,1.180000000000,   0.50000,
,,,1.184000000000,   0.50400,
,,,1.188000000000,   0.50000,
,,,1.192000000000,   0.53600,
,,,1.196000000000,   0.52000,
,,,1.200000000000,   0.52800,
,,,1.204000000000,   0.55200,
,,,1.208000000000,   0.56000,
,,,1.212000000000,   0.54400,
,,,1.216000000000,   0.54800,
,,,1.220000000000,   0.54800,
,,,1.224000000000,   0.56400,
,,,1.228000000000,   0.55600,
,,,1.232000000000,   0.52400,
,,,1.236000000000,   0.49600,
,,,1.240000000000,   0.48800,
,,,1.244000000000,   0.52800,
,,,1.248000000000,   0.48800,
,,,1.252000000000,   0.49200,
,,,1.256000000000,   0.50400,
,,,1.260000000000,   0.48800,
,,,1.264000000000,   0.52400,
,,,1.268000000000,   0.50000,
,,,1.272000000000,   0.50400,
,,,1.276000000000,   0.50400,
,,,1.280000000000,   0.53200,
,,,1.284000000000,   0.53200,
,,,1.288000000000,   0.52000,
,,,1.292000000000,   0.51200,
,,,1.296000000000,   0.50400,
,,,1.300000000000,   0.51600,
,,,1.304000000000,   0.49600,
,,,1.308000000000,   0.50800,
,,,1.312000000000,   0.52000,
,,,1.316000000000,   0.50800,
,,,1.320000000000,   0.50800,
,,,1.324000000000,   0.52800,
,,,1.328000000000,   0.50000,
,,,1.332000000000,   0.52000,
,,,1.336000000000,   0.50400,
,,,1.340000000000,   0.50400,
,,,1.344000000000,   0.49600,
,,,1.348000000000,   0.51600,
,,,1.352000000000,   0.52000,
,,,1.356000000000,   0.50000,
,,,1.360000000000,   0.48800,
,,,1.364000000000,   0.51600,
,,,1.368000000000,   0.51600,
,,,1.372000000000,   0.50400,
,,,1.376000000000,   0.51200,
,,,1.380000000000,   0.50800,
,,,1.384000000000,   0.49200,
,,,1.388000000000,   0.50400,
,,,1.392000000000,   0.50800,
,,,1.396000000000,   0.48400,
,,,1.400000000000,   0.52000,
,,,1.404000000000,   0.51200,
,,,1.408000000000,   0.48400,
,,,1.412000000000,   0.49200,
,,,1.416000000000,   0.46400,
,,,1.420000000000,   0.48800,
,,,1.424000000000,   0.48800,
,,,1.428000000000,   0.50000,
,,,1.432000000000,   0.48000,
,,,1.436000000000,   0.49200,
,,,1.440000000000,   0.50000,
,,,1.444000000000,   0.50000,
,,,1.448000000000,   0.48400,
,,,1.452000000000,   0.47200,
,,,1.456000000000,   0.48400,
,,,1.460000000000,   0.48400,
,,,1.464000000000,   0.48800,
,,,1.468000000000,   0.46800,
,,,1.472000000000,   0.47200,
,,,1.476000000000,   0.49200,
,,,1.480000000000,   0.48400,
,,,1.484000000000,   0.49200,
,,,1.488000000000,   0.50000,
,,,1.492000000000,   0.50400,
,,,1.496000000000,   0.51200,
,,,1.500000000000,   0.50000,
,,,1.504000000000,   0.49200,
,,,1.508000000000,   0.52800,
,,,1.512000000000,   0.52000,
,,,1.516000000000,   0.52000,
,,,1.520000000000,   0.53200,
,,,1.524000000000,   0.52400,
,,,1.528000000000,   0.51600,
,,,1.532000000000,   0.53200,
,,,1.536000000000,   0.50400,
,,,1.540000000000,   0.51600,
,,,1.544000000000,   0.52000,
,,,1.548000000000,   0.50800,
,,,1.552000000000,   0.51200,
,,,1.556000000000,   0.52400,
,,,1.560000000000,   0.52800,
,,,1.564000000000,   0.51600,
,,,1.568000000000,   0.51200,
,,,1.572000000000,   0.53200,
,,,1.576000000000,   0.52400,
,,,1.580000000000,   0.52400,
,,,1.584000000000,   0.53600,
,,,1.588000000000,   0.53200,
,,,1.592000000000,   0.51600,
,,,1.596000000000,   0.51200,
,,,1.600000000000,   0.51600,
,,,1.604000000000,   0.52800,
,,,1.608000000000,   0.52000,
,,,1.612000000000,   0.52800,
,,,1.616000000000,   0.54000,
,,,1.620000000000,   0.52400,
,,,1.624000000000,   0.55600,
,,,1.628000000000,   0.54000,
,,,1.632000000000,   0.53200,
,,,1.636000000000,   0.55200,
,,,1.640000000000,   0.54400,
,,,1.644000000000,   0.54800,
,,,1.648000000000,   0.54000,
,,,1.652000000000,   0.54400,
,,,1.656000000000,   0.53200,
,,,1.660000000000,   0.53200,
,,,1.664000000000,   0.52000,
,,,1.668000000000,   0.52000,
,,,1.672000000000,   0.51200,
,,,1.676000000000,   0.52000,
,,,1.680000000000,   0.51600,
,,,1.684000000000,   0.50400,
,,,1.688000000000,   0.53200,
,,,1.692000000000,   0.54000,
,,,1.696000000000,   0.53600,
,,,1.700000000000,   0.52000,
,,,1.704000000000,   0.52000,
,,,1.708000000000,   0.50800,
,,,1.712000000000,   0.52800,
,,,1.716000000000,   0.53600,
,,,1.720000000000,   0.52800,
,,,1.724000000000,   0.53200,
,,,1.728000000000,   0.52000,
,,,1.732000000000,   0.50800,
,,,1.736000000000,   0.53200,
,,,1.740000000000,   0.52800,
,,,1.744000000000,   0.52400,
,,,1.748000000000,   0.52400,
,,,1.752000000000,   0.54000,
,,,1.756000000000,   0.53600,
,,,1.760000000000,   0.53600,
,,,1.764000000000,   0.54000,
,,,1.768000000000,   0.53200,
,,,1.772000000000,   0.54000,
,,,1.776000000000,   0.53200,
,,,1.780000000000,   0.54000,
,,,1.784000000000,   0.54400,
,,,1.788000000000,   0.53200,
,,,1.792000000000,   0.52800,
,,,1.796000000000,   0.50800,
,,,1.800000000000,   0.50800,
,,,1.804000000000,   0.52000,
,,,1.808000000000,   0.54000,
,,,1.812000000000,   0.51200,
,,,1.816000000000,   0.54000,
,,,1.820000000000,   0.52400,
,,,1.824000000000,   0.52400,
,,,1.828000000000,   0.52400,
,,,1.832000000000,   0.52000,
,,,1.836000000000,   0.51200,
,,,1.840000000000,   0.51200,
,,,1.844000000000,   0.52000,
,,,1.848000000000,   0.54000,
,,,1.852000000000,   0.52400,
,,,1.856000000000,   0.50800,
,,,1.860000000000,   0.52800,
,,,1.864000000000,   0.52000,
,,,1.868000000000,   0.51200,
,,,1.872000000000,   0.51200,
,,,1.876000000000,   0.50400,
,,,1.880000000000,   0.51600,
,,,1.884000000000,   0.51200,
,,,1.888000000000,   0.51200,
,,,1.892000000000,   0.50800,
,,,1.896000000000,   0.52000,
,,,1.900000000000,   0.53200,
,,,1.904000000000,   0.52800,
,,,1.908000000000,   0.52000,
,,,1.912000000000,   0.52800,
,,,1.916000000000,   0.53200,
,,,1.920000000000,   0.54800,
,,,1.924000000000,   0.54000,
,,,1.928000000000,   0.53200,
,,,1.932000000000,   0.52000,
,,,1.936000000000,   0.52000,
,,,1.940000000000,   0.49600,
,,,1.944000000000,   0.49600,
,,,1.948000000000,   0.50000,
,,,1.952000000000,   0.50400,
,,,1.956000000000,   0.50800,
,,,1.960000000000,   0.50000,
,,,1.964000000000,   0.51200,
,,,1.968000000000,   0.50400,
,,,1.972000000000,   0.52000,
,,,1.976000000000,   0.52000,
,,,1.980000000000,   0.52400,
,,,1.984000000000,   0.54000,
,,,1.988000000000,   0.54000,
,,,1.992000000000,   0.52000,
,,,1.996000000000,   0.50800,
,,,2.000000000000,   0.50800,
,,,2.004000000000,   0.52000,
,,,2.008000000000,   0.51200,
,,,2.012000000000,   0.50400,
,,,2.016000000000,   0.50000,
,,,2.020000000000,   0.50400,
,,,2.024000000000,   0.51200,
,,,2.028000000000,   0.50400,
,,,2.032000000000,   0.51200,
,,,2.036000000000,   0.52000,
,,,2.040000000000,   0.52000,
,,,2.044000000000,   0.53200,
,,,2.048000000000,   0.52000,
,,,2.052000000000,   0.51600,
,,,2.056000000000,   0.49600,
,,,2.060000000000,   0.51200,
,,,2.064000000000,   0.51200,
,,,2.068000000000,   0.52000,
,,,2.072000000000,   0.54400,
,,,2.076000000000,   0.53200,
,,,2.080000000000,   0.54400,
,,,2.084000000000,   0.55200,
,,,2.088000000000,   0.54000,
,,,2.092000000000,   0.53600,
,,,2.096000000000,   0.53200,
,,,2.100000000000,   0.54800,
,,,2.104000000000,   0.54800,
,,,2.108000000000,   0.52000,
,,,2.112000000000,   0.52400,
,,,2.116000000000,   0.52400,
,,,2.120000000000,   0.53200,
,,,2.124000000000,   0.53600,
,,,2.128000000000,   0.54800,
,,,2.132000000000,   0.53600,
,,,2.136000000000,   0.52400,
,,,2.140000000000,   0.51600,
,,,2.144000000000,   0.52000,
,,,2.148000000000,   0.54000,
,,,2.152000000000,   0.51600,
,,,2.156000000000,   0.51200,
,,,2.160000000000,   0.52400,
,,,2.164000000000,   0.52000,
,,,2.168000000000,   0.50400,
,,,2.172000000000,   0.51200,
,,,2.176000000000,   0.50800,
,,,2.180000000000,   0.51600,
,,,2.184000000000,   0.52800,
,,,2.188000000000,   0.53600,
,,,2.192000000000,   0.52400,
,,,2.196000000000,   0.52800,
,,,2.200000000000,   0.52800,
,,,2.204000000000,   0.53200,
,,,2.208000000000,   0.52800,
,,,2.212000000000,   0.55600,
,,,2.216000000000,   0.52000,
,,,2.220000000000,   0.51600,
,,,2.224000000000,   0.51600,
,,,2.228000000000,   0.50400,
,,,2.232000000000,   0.51600,
,,,2.236000000000,   0.49600,
,,,2.240000000000,   0.52400,
,,,2.244000000000,   0.51600,
,,,2.248000000000,   0.51200,
,,,2.252000000000,   0.51600,
,,,2.256000000000,   0.50400,
,,,2.260000000000,   0.50000,
,,,2.264000000000,   0.52400,
,,,2.268000000000,   0.50400,
,,,2.272000000000,   0.52000,
,,,2.276000000000,   0.53600,
,,,2.280000000000,   0.52000,
,,,2.284000000000,   0.52000,
,,,2.288000000000,   0.52400,
,,,2.292000000000,   0.52400,
,,,2.296000000000,   0.51600,
,,,2.300000000000,   0.52800,
,,,2.304000000000,   0.52000,
,,,2.308000000000,   0.51200,
,,,2.312000000000,   0.53600,
,,,2.316000000000,   0.53600,
,,,2.320000000000,   0.52800,
,,,2.324000000000,   0.53600,
,,,2.328000000000,   0.55600,
,,,2.332000000000,   0.54800,
,,,2.336000000000,   0.53200,
,,,2.340000000000,   0.52000,
,,,2.344000000000,   0.53600,
,,,2.348000000000,   0.53200,
,,,2.352000000000,   0.51600,
,,,2.356000000000,   0.52000,
,,,2.360000000000,   0.52800,
,,,2.364000000000,   0.52800,
,,,2.368000000000,   0.51200,
,,,2.372000000000,   0.52800,
,,,2.376000000000,   0.53600,
,,,2.380000000000,   0.54000,
,,,2.384000000000,   0.54000,
,,,2.388000000000,   0.54000,
,,,2.392000000000,   0.54800,
,,,2.396000000000,   0.52000,
,,,2.400000000000,   0.52000,
,,,2.404000000000,   0.52000,
,,,2.408000000000,   0.53600,
,,,2.412000000000,   0.54800,
,,,2.416000000000,   0.52800,
,,,2.420000000000,   0.54400,
,,,2.424000000000,   0.56000,
,,,2.428000000000,   0.56400,
,,,2.432000000000,   0.53200,
,,,2.436000000000,   0.52000,
,,,2.440000000000,   0.50800,
,,,2.444000000000,   0.50800,
,,,2.448000000000,   0.50400,
,,,2.452000000000,   0.51600,
,,,2.456000000000,   0.51200,
,,,2.460000000000,   0.52800,
,,,2.464000000000,   0.53600,
,,,2.468000000000,   0.51600,
,,,2.472000000000,   0.52000,
,,,2.476000000000,   0.52800,
,,,2.480000000000,   0.52000,
,,,2.484000000000,   0.53600,
,,,2.488000000000,   0.52000,
,,,2.492000000000,   0.52000,
,,,2.496000000000,   0.52400,
,,,2.500000000000,   0.52000,
,,,2.504000000000,   0.52400,
,,,2.508000000000,   0.52000,
,,,2.512000000000,   0.51600,
,,,2.516000000000,   0.54000,
,,,2.520000000000,   0.49600,
,,,2.524000000000,   0.51200,
,,,2.528000000000,   0.51600,
,,,2.532000000000,   0.50400,
,,,2.536000000000,   0.51200,
,,,2.540000000000,   0.51600,
,,,2.544000000000,   0.52000,
,,,2.548000000000,   0.52400,
,,,2.552000000000,   0.50800,
,,,2.556000000000,   0.51200,
,,,2.560000000000,   0.51200,
,,,2.564000000000,   0.52000,
,,,2.568000000000,   0.51200,
,,,2.572000000000,   0.52400,
,,,2.576000000000,   0.52400,
,,,2.580000000000,   0.52000,
,,,2.584000000000,   0.51200,
,,,2.588000000000,   0.55600,
,,,2.592000000000,   0.54400,
,,,2.596000000000,   0.52800,
,,,2.600000000000,   0.53600,
,,,2.604000000000,   0.56400,
,,,2.608000000000,   0.56000,
,,,2.612000000000,   0.55600,
