QPD/data/08-05-25/08-05-25/TEK0005.CSV

Record Length,2.500000e+03,,   0.000000000000,   0.62400,
Sample Interval,4.000000e-03,,   0.004000000000,   0.60800,
Trigger Point,0.000000000000e+00,,   0.008000000000,   0.58400,
,,,   0.012000000000,   0.56400,
,,,   0.016000000000,   0.54800,
,,,   0.020000000000,   0.52400,
Source,CH2,,   0.024000000000,   0.54400,
Vertical Units,V,,   0.028000000000,   0.55200,
Vertical Scale,1.000000e-01,,   0.032000000000,   0.57200,
Vertical Offset,-4.480000e-01,,   0.036000000000,   0.55600,
Horizontal Units,s,,   0.040000000000,   0.53600,
Horizontal Scale,1.000000e+00,,   0.044000000000,   0.53600,
Pt Fmt,Y,,   0.048000000000,   0.53200,
Yzero,0.000000e+00,,   0.052000000000,   0.53200,
Probe Atten,1.000000e+00,,   0.056000000000,   0.54000,
Model Number,TDS1012B,,   0.060000000000,   0.58800,
Serial Number,C102869,,   0.064000000000,   0.58000,
Firmware Version,FV:v22.11,,   0.068000000000,   0.60400,
,,,0.072000000000,   0.56000,
,,,0.076000000000,   0.60400,
,,,0.080000000000,   0.59600,
,,,0.084000000000,   0.64000,
,,,0.088000000000,   0.63600,
,,,0.092000000000,   0.61600,
,,,0.096000000000,   0.62800,
,,,0.100000000000,   0.62000,
,,,0.104000000000,   0.65600,
,,,0.108000000000,   0.64400,
,,,0.112000000000,   0.61200,
,,,0.116000000000,   0.60400,
,,,0.120000000000,   0.61600,
,,,0.124000000000,   0.61200,
,,,0.128000000000,   0.60800,
,,,0.132000000000,   0.60400,
,,,0.136000000000,   0.60800,
,,,0.140000000000,   0.60000,
,,,0.144000000000,   0.54000,
,,,0.148000000000,   0.54800,
,,,0.152000000000,   0.53200,
,,,0.156000000000,   0.55200,
,,,0.160000000000,   0.52800,
,,,0.164000000000,   0.52800,
,,,0.168000000000,   0.52800,
,,,0.172000000000,   0.53200,
,,,0.176000000000,   0.52000,
,,,0.180000000000,   0.50000,
,,,0.184000000000,   0.51600,
,,,0.188000000000,   0.52400,
,,,0.192000000000,   0.53200,
,,,0.196000000000,   0.54000,
,,,0.200000000000,   0.53200,
,,,0.204000000000,   0.52400,
,,,0.208000000000,   0.53200,
,,,0.212000000000,   0.54000,
,,,0.216000000000,   0.58000,
,,,0.220000000000,   0.55600,
,,,0.224000000000,   0.55600,
,,,0.228000000000,   0.57600,
,,,0.232000000000,   0.55600,
,,,0.236000000000,   0.52800,
,,,0.240000000000,   0.57600,
,,,0.244000000000,   0.53200,
,,,0.248000000000,   0.54800,
,,,0.252000000000,   0.53200,
,,,0.256000000000,   0.55200,
,,,0.260000000000,   0.55600,
,,,0.264000000000,   0.55600,
,,,0.268000000000,   0.58400,
,,,0.272000000000,   0.56800,
,,,0.276000000000,   0.56400,
,,,0.280000000000,   0.56000,
,,,0.284000000000,   0.54400,
,,,0.288000000000,   0.58800,
,,,0.292000000000,   0.60000,
,,,0.296000000000,   0.58800,
,,,0.300000000000,   0.55600,
,,,0.304000000000,   0.54400,
,,,0.308000000000,   0.52800,
,,,0.312000000000,   0.52000,
,,,0.316000000000,   0.52000,
,,,0.320000000000,   0.53600,
,,,0.324000000000,   0.54000,
,,,0.328000000000,   0.53600,
,,,0.332000000000,   0.55600,
,,,0.336000000000,   0.53600,
,,,0.340000000000,   0.50400,
,,,0.344000000000,   0.53200,
,,,0.348000000000,   0.55600,
,,,0.352000000000,   0.53600,
,,,0.356000000000,   0.55600,
,,,0.360000000000,   0.56800,
,,,0.364000000000,   0.54000,
,,,0.368000000000,   0.56400,
,,,0.372000000000,   0.58400,
,,,0.376000000000,   0.57600,
,,,0.380000000000,   0.54800,
,,,0.384000000000,   0.56800,
,,,0.388000000000,   0.57600,
,,,0.392000000000,   0.57600,
,,,0.396000000000,   0.56800,
,,,0.400000000000,   0.59200,
,,,0.404000000000,   0.61600,
,,,0.408000000000,   0.60800,
,,,0.412000000000,   0.59200,
,,,0.416000000000,   0.57200,
,,,0.420000000000,   0.57600,
,,,0.424000000000,   0.58800,
,,,0.428000000000,   0.56800,
,,,0.432000000000,   0.58000,
,,,0.436000000000,   0.62000,
,,,0.440000000000,   0.65600,
,,,0.444000000000,   0.64400,
,,,0.448000000000,   0.59200,
,,,0.452000000000,   0.60800,
,,,0.456000000000,   0.59200,
,,,0.460000000000,   0.56000,
,,,0.464000000000,   0.58800,
,,,0.468000000000,   0.53200,
,,,0.472000000000,   0.54000,
,,,0.476000000000,   0.56800,
,,,0.480000000000,   0.54800,
,,,0.484000000000,   0.55600,
,,,0.488000000000,   0.55600,
,,,0.492000000000,   0.51600,
,,,0.496000000000,   0.54400,
,,,0.500000000000,   0.56000,
,,,0.504000000000,   0.58800,
,,,0.508000000000,   0.58000,
,,,0.512000000000,   0.56800,
,,,0.516000000000,   0.59600,
,,,0.520000000000,   0.55200,
,,,0.524000000000,   0.58000,
,,,0.528000000000,   0.60000,
,,,0.532000000000,   0.55600,
,,,0.536000000000,   0.58800,
,,,0.540000000000,   0.57600,
,,,0.544000000000,   0.56800,
,,,0.548000000000,   0.60800,
,,,0.552000000000,   0.60000,
,,,0.556000000000,   0.60400,
,,,0.560000000000,   0.61200,
,,,0.564000000000,   0.60000,
,,,0.568000000000,   0.58400,
,,,0.572000000000,   0.60400,
,,,0.576000000000,   0.60800,
,,,0.580000000000,   0.59600,
,,,0.584000000000,   0.60400,
,,,0.588000000000,   0.60000,
,,,0.592000000000,   0.59600,
,,,0.596000000000,   0.58400,
,,,0.600000000000,   0.58000,
,,,0.604000000000,   0.61600,
,,,0.608000000000,   0.58800,
,,,0.612000000000,   0.59200,
,,,0.616000000000,   0.56000,
,,,0.620000000000,   0.55600,
,,,0.624000000000,   0.54400,
,,,0.628000000000,   0.53600,
,,,0.632000000000,   0.57200,
,,,0.636000000000,   0.57600,
,,,0.640000000000,   0.60800,
,,,0.644000000000,   0.63200,
,,,0.648000000000,   0.58800,
,,,0.652000000000,   0.59200,
,,,0.656000000000,   0.61200,
,,,0.660000000000,   0.56800,
,,,0.664000000000,   0.59200,
,,,0.668000000000,   0.58400,
,,,0.672000000000,   0.60400,
,,,0.676000000000,   0.57600,
,,,0.680000000000,   0.57200,
,,,0.684000000000,   0.56800,
,,,0.688000000000,   0.57600,
,,,0.692000000000,   0.57200,
,,,0.696000000000,   0.57600,
,,,0.700000000000,   0.59200,
,,,0.704000000000,   0.53200,
,,,0.708000000000,   0.57200,
,,,0.712000000000,   0.58000,
,,,0.716000000000,   0.56800,
,,,0.720000000000,   0.59600,
,,,0.724000000000,   0.66800,
,,,0.728000000000,   0.66400,
,,,0.732000000000,   0.65200,
,,,0.736000000000,   0.64400,
,,,0.740000000000,   0.61200,
,,,0.744000000000,   0.60800,
,,,0.748000000000,   0.61600,
,,,0.752000000000,   0.58800,
,,,0.756000000000,   0.56800,
,,,0.760000000000,   0.59200,
,,,0.764000000000,   0.62400,
,,,0.768000000000,   0.63200,
,,,0.772000000000,   0.62400,
,,,0.776000000000,   0.61600,
,,,0.780000000000,   0.62400,
,,,0.784000000000,   0.58000,
,,,0.788000000000,   0.57200,
,,,0.792000000000,   0.53600,
,,,0.796000000000,   0.57200,
,,,0.800000000000,   0.57600,
,,,0.804000000000,   0.59600,
,,,0.808000000000,   0.56800,
,,,0.812000000000,   0.57600,
,,,0.816000000000,   0.58000,
,,,0.820000000000,   0.56000,
,,,0.824000000000,   0.59600,
,,,0.828000000000,   0.57600,
,,,0.832000000000,   0.56400,
,,,0.836000000000,   0.56400,
,,,0.840000000000,   0.57200,
,,,0.844000000000,   0.59200,
,,,0.848000000000,   0.56000,
,,,0.852000000000,   0.59200,
,,,0.856000000000,   0.58800,
,,,0.860000000000,   0.54000,
,,,0.864000000000,   0.51200,
,,,0.868000000000,   0.52400,
,,,0.872000000000,   0.52400,
,,,0.876000000000,   0.56000,
,,,0.880000000000,   0.55600,
,,,0.884000000000,   0.54400,
,,,0.888000000000,   0.50400,
,,,0.892000000000,   0.52000,
,,,0.896000000000,   0.54800,
,,,0.900000000000,   0.53200,
,,,0.904000000000,   0.55200,
,,,0.908000000000,   0.54800,
,,,0.912000000000,   0.54000,
,,,0.916000000000,   0.55600,
,,,0.920000000000,   0.55600,
,,,0.924000000000,   0.53600,
,,,0.928000000000,   0.54400,
,,,0.932000000000,   0.55600,
,,,0.936000000000,   0.59200,
,,,0.940000000000,   0.61200,
,,,0.944000000000,   0.61200,
,,,0.948000000000,   0.63200,
,,,0.952000000000,   0.66400,
,,,0.956000000000,   0.60800,
,,,0.960000000000,   0.59200,
,,,0.964000000000,   0.60000,
,,,0.968000000000,   0.62000,
,,,0.972000000000,   0.63600,
,,,0.976000000000,   0.60000,
,,,0.980000000000,   0.59200,
,,,0.984000000000,   0.61200,
,,,0.988000000000,   0.60800,
,,,0.992000000000,   0.59200,
,,,0.996000000000,   0.59600,
,,,1.000000000000,   0.56800,
,,,1.004000000000,   0.55200,
,,,1.008000000000,   0.56000,
,,,1.012000000000,   0.55200,
,,,1.016000000000,   0.56000,
,,,1.020000000000,   0.54800,
,,,1.024000000000,   0.54800,
,,,1.028000000000,   0.54000,
,,,1.032000000000,   0.54000,
,,,1.036000000000,   0.57200,
,,,1.040000000000,   0.54400,
,,,1.044000000000,   0.51600,
,,,1.048000000000,   0.52000,
,,,1.052000000000,   0.51200,
,,,1.056000000000,   0.53600,
,,,1.060000000000,   0.54800,
,,,1.064000000000,   0.56800,
,,,1.068000000000,   0.56800,
,,,1.072000000000,   0.55200,
,,,1.076000000000,   0.53600,
,,,1.080000000000,   0.54000,
,,,1.084000000000,   0.55200,
,,,1.088000000000,   0.56000,
,,,1.092000000000,   0.57600,
,,,1.096000000000,   0.58000,
,,,1.100000000000,   0.60800,
,,,1.104000000000,   0.60800,
,,,1.108000000000,   0.62000,
,,,1.112000000000,   0.61600,
,,,1.116000000000,   0.57600,
,,,1.120000000000,   0.56000,
,,,1.124000000000,   0.54000,
,,,1.128000000000,   0.57200,
,,,1.132000000000,   0.54800,
,,,1.136000000000,   0.54000,
,,,1.140000000000,   0.55600,
,,,1.144000000000,   0.57600,
,,,1.148000000000,   0.57200,
,,,1.152000000000,   0.54400,
,,,1.156000000000,   0.56800,
,,,1.160000000000,   0.57600,
,,,1.164000000000,   0.59200,
,,,1.168000000000,   0.59600,
,,,1.172000000000,   0.55600,
,,,1.176000000000,   0.57600,
,,,1.180000000000,   0.52400,
,,,1.184000000000,   0.54400,
,,,1.188000000000,   0.55600,
,,,1.192000000000,   0.56400,
,,,1.196000000000,   0.56400,
,,,1.200000000000,   0.54800,
,,,1.204000000000,   0.58800,
,,,1.208000000000,   0.58800,
,,,1.212000000000,   0.58400,
,,,1.216000000000,   0.59200,
,,,1.220000000000,   0.60000,
,,,1.224000000000,   0.57600,
,,,1.228000000000,   0.54800,
,,,1.232000000000,   0.56400,
,,,1.236000000000,   0.56000,
,,,1.240000000000,   0.56800,
,,,1.244000000000,   0.56400,
,,,1.248000000000,   0.56400,
,,,1.252000000000,   0.52400,
,,,1.256000000000,   0.54000,
,,,1.260000000000,   0.52800,
,,,1.264000000000,   0.54000,
,,,1.268000000000,   0.54400,
,,,1.272000000000,   0.58000,
,,,1.276000000000,   0.55600,
,,,1.280000000000,   0.55200,
,,,1.284000000000,   0.55200,
,,,1.288000000000,   0.54800,
,,,1.292000000000,   0.55200,
,,,1.296000000000,   0.56400,
,,,1.300000000000,   0.54800,
,,,1.304000000000,   0.56000,
,,,1.308000000000,   0.60000,
,,,1.312000000000,   0.57200,
,,,1.316000000000,   0.56000,
,,,1.320000000000,   0.54000,
,,,1.324000000000,   0.57600,
,,,1.328000000000,   0.62000,
,,,1.332000000000,   0.57600,
,,,1.336000000000,   0.59200,
,,,1.340000000000,   0.67200,
,,,1.344000000000,   0.62800,
,,,1.348000000000,   0.63200,
,,,1.352000000000,   0.62400,
,,,1.356000000000,   0.62000,
,,,1.360000000000,   0.60800,
,,,1.364000000000,   0.62000,
,,,1.368000000000,   0.60400,
,,,1.372000000000,   0.60400,
,,,1.376000000000,   0.60000,
,,,1.380000000000,   0.57200,
,,,1.384000000000,   0.58400,
,,,1.388000000000,   0.60000,
,,,1.392000000000,   0.62800,
,,,1.396000000000,   0.56800,
,,,1.400000000000,   0.56400,
,,,1.404000000000,   0.56800,
,,,1.408000000000,   0.56400,
,,,1.412000000000,   0.60800,
,,,1.416000000000,   0.62400,
,,,1.420000000000,   0.59200,
,,,1.424000000000,   0.62800,
,,,1.428000000000,   0.62000,
,,,1.432000000000,   0.62800,
,,,1.436000000000,   0.61200,
,,,1.440000000000,   0.57200,
,,,1.444000000000,   0.57200,
,,,1.448000000000,   0.60000,
,,,1.452000000000,   0.58400,
,,,1.456000000000,   0.60400,
,,,1.460000000000,   0.58400,
,,,1.464000000000,   0.60400,
,,,1.468000000000,   0.62000,
,,,1.472000000000,   0.64400,
,,,1.476000000000,   0.65200,
,,,1.480000000000,   0.65200,
,,,1.484000000000,   0.62400,
,,,1.488000000000,   0.59600,
,,,1.492000000000,   0.59200,
,,,1.496000000000,   0.58800,
,,,1.500000000000,   0.60000,
,,,1.504000000000,   0.56800,
,,,1.508000000000,   0.56800,
,,,1.512000000000,   0.60400,
,,,1.516000000000,   0.54000,
,,,1.520000000000,   0.60000,
,,,1.524000000000,   0.61200,
,,,1.528000000000,   0.59600,
,,,1.532000000000,   0.60400,
,,,1.536000000000,   0.58400,
,,,1.540000000000,   0.57600,
,,,1.544000000000,   0.55600,
,,,1.548000000000,   0.57600,
,,,1.552000000000,   0.60000,
,,,1.556000000000,   0.60400,
,,,1.560000000000,   0.61200,
,,,1.564000000000,   0.66400,
,,,1.568000000000,   0.64000,
,,,1.572000000000,   0.66400,
,,,1.576000000000,   0.66800,
,,,1.580000000000,   0.61200,
,,,1.584000000000,   0.64000,
,,,1.588000000000,   0.63600,
,,,1.592000000000,   0.58400,
,,,1.596000000000,   0.61200,
,,,1.600000000000,   0.63600,
,,,1.604000000000,   0.60400,
,,,1.608000000000,   0.57600,
,,,1.612000000000,   0.54800,
,,,1.616000000000,   0.58000,
,,,1.620000000000,   0.53200,
,,,1.624000000000,   0.55600,
,,,1.628000000000,   0.54400,
,,,1.632000000000,   0.52400,
,,,1.636000000000,   0.52800,
,,,1.640000000000,   0.55200,
,,,1.644000000000,   0.54400,
,,,1.648000000000,   0.55200,
,,,1.652000000000,   0.58400,
,,,1.656000000000,   0.54800,
,,,1.660000000000,   0.56000,
,,,1.664000000000,   0.59600,
,,,1.668000000000,   0.57600,
,,,1.672000000000,   0.57200,
,,,1.676000000000,   0.54000,
,,,1.680000000000,   0.53200,
,,,1.684000000000,   0.57200,
,,,1.688000000000,   0.58800,
,,,1.692000000000,   0.58800,
,,,1.696000000000,   0.53200,
,,,1.700000000000,   0.54000,
,,,1.704000000000,   0.53600,
,,,1.708000000000,   0.54800,
,,,1.712000000000,   0.53200,
,,,1.716000000000,   0.56000,
,,,1.720000000000,   0.53600,
,,,1.724000000000,   0.57600,
,,,1.728000000000,   0.55600,
,,,1.732000000000,   0.55600,
,,,1.736000000000,   0.56000,
,,,1.740000000000,   0.57200,
,,,1.744000000000,   0.58800,
,,,1.748000000000,   0.58400,
,,,1.752000000000,   0.59600,
,,,1.756000000000,   0.58800,
,,,1.760000000000,   0.58400,
,,,1.764000000000,   0.59200,
,,,1.768000000000,   0.57600,
,,,1.772000000000,   0.59200,
,,,1.776000000000,   0.59200,
,,,1.780000000000,   0.59200,
,,,1.784000000000,   0.57200,
,,,1.788000000000,   0.58400,
,,,1.792000000000,   0.58400,
,,,1.796000000000,   0.58400,
,,,1.800000000000,   0.58400,
,,,1.804000000000,   0.54800,
,,,1.808000000000,   0.57600,
,,,1.812000000000,   0.58400,
,,,1.816000000000,   0.58400,
,,,1.820000000000,   0.59200,
,,,1.824000000000,   0.57200,
,,,1.828000000000,   0.56400,
,,,1.832000000000,   0.55600,
,,,1.836000000000,   0.53600,
,,,1.840000000000,   0.51600,
,,,1.844000000000,   0.50800,
,,,1.848000000000,   0.52000,
,,,1.852000000000,   0.55600,
,,,1.856000000000,   0.55600,
,,,1.860000000000,   0.58000,
,,,1.864000000000,   0.55600,
,,,1.868000000000,   0.56000,
,,,1.872000000000,   0.59600,
,,,1.876000000000,   0.58800,
,,,1.880000000000,   0.59200,
,,,1.884000000000,   0.59200,
,,,1.888000000000,   0.56400,
,,,1.892000000000,   0.52800,
,,,1.896000000000,   0.51200,
,,,1.900000000000,   0.54000,
,,,1.904000000000,   0.52000,
,,,1.908000000000,   0.52800,
,,,1.912000000000,   0.56000,
,,,1.916000000000,   0.55200,
,,,1.920000000000,   0.50800,
,,,1.924000000000,   0.50800,
,,,1.928000000000,   0.55200,
,,,1.932000000000,   0.51200,
,,,1.936000000000,   0.53200,
,,,1.940000000000,   0.51600,
,,,1.944000000000,   0.53200,
,,,1.948000000000,   0.52800,
,,,1.952000000000,   0.54000,
,,,1.956000000000,   0.55600,
,,,1.960000000000,   0.54800,
,,,1.964000000000,   0.52000,
,,,1.968000000000,   0.55200,
,,,1.972000000000,   0.54400,
,,,1.976000000000,   0.55600,
,,,1.980000000000,   0.56000,
,,,1.984000000000,   0.52000,
,,,1.988000000000,   0.54000,
,,,1.992000000000,   0.54400,
,,,1.996000000000,   0.52800,
,,,2.000000000000,   0.50800,
,,,2.004000000000,   0.52400,
,,,2.008000000000,   0.55200,
,,,2.012000000000,   0.52400,
,,,2.016000000000,   0.50800,
,,,2.020000000000,   0.52000,
,,,2.024000000000,   0.51200,
,,,2.028000000000,   0.50800,
,,,2.032000000000,   0.50400,
,,,2.036000000000,   0.52400,
,,,2.040000000000,   0.54400,
,,,2.044000000000,   0.55200,
,,,2.048000000000,   0.55200,
,,,2.052000000000,   0.55600,
,,,2.056000000000,   0.60000,
,,,2.060000000000,   0.58000,
,,,2.064000000000,   0.59200,
,,,2.068000000000,   0.56800,
,,,2.072000000000,   0.58400,
,,,2.076000000000,   0.54400,
,,,2.080000000000,   0.56400,
,,,2.084000000000,   0.58800,
,,,2.088000000000,   0.57200,
,,,2.092000000000,   0.59200,
,,,2.096000000000,   0.62800,
,,,2.100000000000,   0.61600,
,,,2.104000000000,   0.61600,
,,,2.108000000000,   0.58800,
,,,2.112000000000,   0.55600,
,,,2.116000000000,   0.56000,
,,,2.120000000000,   0.55600,
,,,2.124000000000,   0.54400,
,,,2.128000000000,   0.53600,
,,,2.132000000000,   0.54400,
,,,2.136000000000,   0.58800,
,,,2.140000000000,   0.56000,
,,,2.144000000000,   0.56800,
,,,2.148000000000,   0.56000,
,,,2.152000000000,   0.55600,
,,,2.156000000000,   0.57600,
,,,2.160000000000,   0.57200,
,,,2.164000000000,   0.56800,
,,,2.168000000000,   0.55600,
,,,2.172000000000,   0.54800,
,,,2.176000000000,   0.55200,
,,,2.180000000000,   0.55600,
,,,2.184000000000,   0.56000,
,,,2.188000000000,   0.56000,
,,,2.192000000000,   0.56800,
,,,2.196000000000,   0.54000,
,,,2.200000000000,   0.53200,
,,,2.204000000000,   0.53200,
,,,2.208000000000,   0.52000,
,,,2.212000000000,   0.54000,
,,,2.216000000000,   0.54800,
,,,2.220000000000,   0.55600,
,,,2.224000000000,   0.57200,
,,,2.228000000000,   0.58400,
,,,2.232000000000,   0.56800,
,,,2.236000000000,   0.61200,
,,,2.240000000000,   0.56800,
,,,2.244000000000,   0.54000,
,,,2.248000000000,   0.54000,
,,,2.252000000000,   0.56000,
,,,2.256000000000,   0.55200,
,,,2.260000000000,   0.56000,
,,,2.264000000000,   0.60800,
,,,2.268000000000,   0.58400,
,,,2.272000000000,   0.54800,
,,,2.276000000000,   0.56000,
,,,2.280000000000,   0.54400,
,,,2.284000000000,   0.56800,
,,,2.288000000000,   0.56000,
,,,2.292000000000,   0.60800,
,,,2.296000000000,   0.56400,
,,,2.300000000000,   0.55200,
,,,2.304000000000,   0.60400,
,,,2.308000000000,   0.58800,
,,,2.312000000000,   0.58800,
,,,2.316000000000,   0.59200,
,,,2.320000000000,   0.57200,
,,,2.324000000000,   0.50800,
,,,2.328000000000,   0.54000,
,,,2.332000000000,   0.52800,
,,,2.336000000000,   0.51600,
,,,2.340000000000,   0.52000,
,,,2.344000000000,   0.57200,
,,,2.348000000000,   0.54400,
,,,2.352000000000,   0.53600,
,,,2.356000000000,   0.54800,
,,,2.360000000000,   0.54400,
,,,2.364000000000,   0.52800,
,,,2.368000000000,   0.53200,
,,,2.372000000000,   0.52000,
,,,2.376000000000,   0.52400,
,,,2.380000000000,   0.53200,
,,,2.384000000000,   0.51200,
,,,2.388000000000,   0.52400,
,,,2.392000000000,   0.54000,
,,,2.396000000000,   0.54800,
,,,2.400000000000,   0.57200,
,,,2.404000000000,   0.57200,
,,,2.408000000000,   0.56000,
,,,2.412000000000,   0.54800,
,,,2.416000000000,   0.54400,
,,,2.420000000000,   0.55600,
,,,2.424000000000,   0.58400,
,,,2.428000000000,   0.58400,
,,,2.432000000000,   0.60000,
,,,2.436000000000,   0.58400,
,,,2.440000000000,   0.52400,
,,,2.444000000000,   0.52400,
,,,2.448000000000,   0.52000,
,,,2.452000000000,   0.52000,
,,,2.456000000000,   0.51200,
,,,2.460000000000,   0.52800,
,,,2.464000000000,   0.54000,
,,,2.468000000000,   0.57200,
,,,2.472000000000,   0.56000,
,,,2.476000000000,   0.58800,
,,,2.480000000000,   0.60000,
,,,2.484000000000,   0.60000,
,,,2.488000000000,   0.61600,
,,,2.492000000000,   0.58000,
,,,2.496000000000,   0.58400,
,,,2.500000000000,   0.60400,
,,,2.504000000000,   0.59600,
,,,2.508000000000,   0.59200,
,,,2.512000000000,   0.56400,
,,,2.516000000000,   0.57200,
,,,2.520000000000,   0.52800,
,,,2.524000000000,   0.52000,
,,,2.528000000000,   0.52800,
,,,2.532000000000,   0.56400,
,,,2.536000000000,   0.53200,
,,,2.540000000000,   0.59600,
,,,2.544000000000,   0.61200,
,,,2.548000000000,   0.63600,
,,,2.552000000000,   0.64800,
,,,2.556000000000,   0.65600,
,,,2.560000000000,   0.64400,
,,,2.564000000000,   0.65600,
,,,2.568000000000,   0.61200,
,,,2.572000000000,   0.63200,
,,,2.576000000000,   0.64800,
,,,2.580000000000,   0.63200,
,,,2.584000000000,   0.59200,
,,,2.588000000000,   0.59600,
,,,2.592000000000,   0.61200,
,,,2.596000000000,   0.57200,
,,,2.600000000000,   0.56800,
,,,2.604000000000,   0.57200,
,,,2.608000000000,   0.58800,
,,,2.612000000000,   0.59200,
